﻿Place,Name,WeightClassKg,Division,Sex,BirthDate,Team,BodyweightKg,Best3SquatKg,Best3BenchKg,Best3DeadliftKg,TotalKg,Equipment,Event
1,Kajal #3,47,Open,F,1997-11-14,MAH,45.30,162.5,105,150,417.5,Single-ply,SBD
2,Harshada Ghole,47,Open,F,2002-05-30,MAH,46.00,175,87.5,155,417.5,Single-ply,SBD
3,Reema Kumari,47,Open,F,1995-06-04,PUN,44.15,177.5,80,152.5,410.0,Single-ply,SBD
4,Najuka Tatu Ghare,47,Open,F,1995-02-09,RSPB,46.15,165,87.5,152.5,405.0,Single-ply,SBD
5,Aleena Joseph,47,Open,F,2001-02-25,KER,46.90,172.5,82.5,135,390.0,Single-ply,SBD
6,Saloni Joshi,47,Open,F,2001-07-15,U P,45.30,100,65,110,275.0,Single-ply,SBD
7,Priyanka,47,Open,F,2005-01-31,HAR,38.60,80,40,110,230.0,Single-ply,SBD
DQ,Ashi Mol,47,Open,F,1997-05-27,KER,46.40,,,,,Single-ply,SBD
1,Anjali,52,Open,F,1991-03-15,RSPB,51.45,182.5,105,167.5,455.0,Single-ply,SBD
2,Suman Devi,52,Open,F,1997-06-20,HAR,52.00,177.5,105,172.5,455.0,Single-ply,SBD
3,Kajol Gaurav,52,Open,F,1995-01-01,T N,51.55,175,100,160,435.0,Single-ply,SBD
4,Rohit Anjana B,52,Open,F,1999-10-01,GUJ,50.55,175,90,157.5,422.5,Single-ply,SBD
5,Anshu Verma,52,Open,F,1994-12-07,RAJ,51.50,165,75,167.5,407.5,Single-ply,SBD
6,R. Poorna,52,Open,F,1998-12-18,A P,51.80,160,80,155,395.0,Single-ply,SBD
7,Syeda Samina Razin,52,Open,F,1996-01-02,ASA,51.50,135,67.5,172.5,375.0,Single-ply,SBD
8,Renuka Gautam,52,Open,F,1998-08-05,U P,48.20,105,50,115,270.0,Single-ply,SBD
9,Shivani Raut,52,Open,F,1996-01-15,M P,51.20,105,57.5,100,262.5,Single-ply,SBD
1,Aastha Singh,57,Open,F,1999-12-12,RSPB,57.00,200,102.5,192.5,495.0,Single-ply,SBD
2,Mamta Rajak,57,Open,F,1999-04-10,CHT,56.60,187.5,95,187.5,470.0,Single-ply,SBD
3,Pooja M A,57,Open,F,2000-02-15,T N,55.60,185,100,180,465.0,Single-ply,SBD
4,Jwala Jose L,57,Open,F,2000-01-17,KER,56.40,180,105,170,455.0,Single-ply,SBD
5,Seeya Metilda Baiju,57,Open,F,2002-07-09,KER,55.20,170,95,170,435.0,Single-ply,SBD
6,Pavithra M G,57,Open,F,1999-09-18,T N,56.30,170,92.5,145,407.5,Single-ply,SBD
7,Reena Rashtogi,57,Open,F,2002-03-30,UTK,56.20,115,72.5,142.5,330.0,Single-ply,SBD
DQ,Vishali,57,Open,F,2001-08-19,PUN,55.80,,70,155,,Single-ply,SBD
1,Samruddhi Deolekar,63,Open,F,2001-05-25,RSPB,62.40,207.5,107.5,197.5,512.5,Single-ply,SBD
2,Jaswinder Kour,63,Open,F,1997-07-06,UTK,62.70,190,102.5,195,487.5,Single-ply,SBD
3,Sejal Makwana,63,Open,F,2001-10-01,MAH,63.00,200,112.5,167.5,480.0,Single-ply,SBD
4,Neha Rani,63,Open,F,2003-04-19,BIH,59.80,197.5,100,177.5,475.0,Single-ply,SBD
5,Logeshwari Subramani,63,Open,F,1989-07-26,A&N,62.65,190,97.5,177.5,465.0,Single-ply,SBD
6,Mudda Tirupathamma,63,Open,F,2002-02-08,A P,62.15,192.5,87.5,175,455.0,Single-ply,SBD
7,Jyoti Singh,63,Open,F,1997-01-01,U P,61.80,175,102.5,170,447.5,Single-ply,SBD
8,Aditi Sangle,63,Open,F,2004-01-20,MAH,60.70,175,70,167.5,412.5,Single-ply,SBD
9,Krishna #1,63,Open,F,1995-03-01,HAR,63.00,150,92.5,170,412.5,Single-ply,SBD
10,Rani Kumari,63,Open,F,1994-04-06,JHA,63.00,165,95,150,410.0,Single-ply,SBD
11,Deepthi Raj B C,63,Open,F,1999-08-23,T N,62.40,150,77.5,175,402.5,Single-ply,SBD
12,Khushboo Solanki,63,Open,F,1994-05-31,RAJ,62.35,155,87.5,157.5,400.0,Single-ply,SBD
13,Nilanjana Majumder,63,Open,F,1986-04-23,W B,59.75,155,77.5,150,382.5,Single-ply,SBD
DQ,Amrita Kumari,63,Open,F,2002-03-06,BIH,59.60,180,97.5,,,Single-ply,SBD
DQ,Sonu Asharam Sarote,63,Open,F,1992-01-11,VID,61.50,,60,,,Single-ply,SBD
DQ,Sakshi Mor,63,Open,F,1999-08-19,DEL,61.80,152.5,,,,Single-ply,SBD
1,Reshma Devi,69,Open,F,2000-03-10,RSPB,66.85,220,102.5,192.5,515.0,Single-ply,SBD
2,Akshaya Shedge,69,Open,F,1995-05-13,MAH,67.40,215,107.5,192.5,515.0,Single-ply,SBD
3,Prerana Salvi,69,Open,F,2003-08-31,MAH,68.40,207.5,112.5,175,495.0,Single-ply,SBD
4,Priya Darshini Bisoi,69,Open,F,1997-09-25,ODI,68.95,190,120,180,490.0,Single-ply,SBD
5,Saloni More,69,Open,F,2000-06-26,A&N,65.75,200,100,180,480.0,Single-ply,SBD
6,Alka Raghav,69,Open,F,2004-04-30,KER,68.65,182.5,85,200,467.5,Single-ply,SBD
7,Aleena Javed,69,Open,F,1996-05-04,DEL,68.50,187.5,85,167.5,440.0,Single-ply,SBD
8,Shanmugapriya P,69,Open,F,2001-12-23,T N,68.65,180,82.5,165,427.5,Single-ply,SBD
9,Neelam Shreyam,69,Open,F,1994-06-03,M P,67.65,170,95,155,420.0,Single-ply,SBD
10,Ria Saha,69,Open,F,1996-12-17,W B,68.20,180,70,150,400.0,Single-ply,SBD
11,Nagashree,69,Open,F,2001-03-12,KAR,68.58,157.5,70,160,387.5,Single-ply,SBD
12,Roshnee Roy,69,Open,F,1993-04-02,M P,63.20,110,75,150,335.0,Single-ply,SBD
13,Ishali Thakur,69,Open,F,2004-01-01,U P,66.25,132.5,62.5,125,320.0,Single-ply,SBD
DQ,Challagundla Nageena,69,Open,F,1988-06-02,TEL,63.55,,,,,Single-ply,SBD
DQ,Kiran Dubey,69,Open,F,1988-12-27,U P,64.15,,,,,Single-ply,SBD
DQ,Purnima Baishya,69,Open,F,1993-07-03,ASA,64.60,,90,160,,Single-ply,SBD
DQ,Ahanthem Sana Devi,69,Open,F,1980-02-04,MAN,68.20,,,,,Single-ply,SBD
1,Rashmi Yasin,76,Open,F,1998-10-15,RSPB,75.55,232.5,132.5,202.5,567.5,Single-ply,SBD
2,Seera Chandra Kala,76,Open,F,1992-08-12,A P,72.05,222.5,127.5,197.5,547.5,Single-ply,SBD
3,Manjusha S,76,Open,F,1982-03-22,KER,73.60,200,125,150,475.0,Single-ply,SBD
4,Santosh Kour,76,Open,F,1995-08-02,UTK,75.45,200,92.5,180,472.5,Single-ply,SBD
5,Sakshi Poonia,76,Open,F,1996-07-11,U P,74.30,187.5,100,170,457.5,Single-ply,SBD
6,Rupali Shee,76,Open,F,1997-10-12,W B,70.50,137.5,60,110,307.5,Single-ply,SBD
DQ,Ahanthem Tareshori Devi,76,Open,F,1981-08-15,MAN,69.90,,,,,Single-ply,SBD
DQ,Konjengbam Anita Devi,76,Open,F,1983-03-01,MAN,71.00,,,,,Single-ply,SBD
DQ,Farhanaaz Altafhussain Pinjar,76,Open,F,2002-07-20,KAR,73.70,,60,135,,Single-ply,SBD
DQ,Maha Lakshmi.V,76,Open,F,2004-12-04,T N,74.40,,85,155,,Single-ply,SBD
DQ,Ramanjeet Kaur,76,Open,F,1989-09-18,UTK,75.70,,122.5,170,,Single-ply,SBD
1,Shovita,84,Open,F,1997-08-29,DEL,83.20,240,162.5,177.5,580.0,Single-ply,SBD
2,Abhirami M. V,84,Open,F,2000-02-13,RSPB,83.30,252.5,120,192.5,565.0,Single-ply,SBD
3,Ashlesha Gudekar,84,Open,F,1999-01-03,MAH,83.40,215,110,195,520.0,Single-ply,SBD
4,Abhirami S,84,Open,F,2003-11-04,KER,83.75,220,97.5,175,492.5,Single-ply,SBD
5,Bhumika Dagar,84,Open,F,2003-06-16,DEL,84.00,197.5,105,167.5,470.0,Single-ply,SBD
6,Achal Meshram,84,Open,F,2004-09-14,VID,79.00,175,100,185,460.0,Single-ply,SBD
7,Shaik Shabeena,84,Open,F,2005-01-04,A P,81.30,195,82.5,160,437.5,Single-ply,SBD
8,Soma Sarkar Roy,84,Open,F,1997-10-26,W B,82.95,175,85,160,420.0,Single-ply,SBD
9,Rathi Devi V,84,Open,F,2002-05-23,T N,80.45,182.5,70,140,392.5,Single-ply,SBD
10,Zahra Taiyeb Ezzi,84,Open,F,1985-04-15,TEL,80.30,140,70,135,345.0,Single-ply,SBD
11,Kanak Sharma,84,Open,F,2004-05-06,KAR,80.40,120,60,115,295.0,Single-ply,SBD
1,Sharmila De,84+,Open,F,1990-10-17,RSPB,118.45,262.5,157.5,185,605.0,Single-ply,SBD
2,Moumita Ghosh,84+,Open,F,2002-03-12,W B,102.35,245,127.5,190,562.5,Single-ply,SBD
3,B. Chandrika,84+,Open,F,1993-02-21,A P,103.10,257.5,110,180,547.5,Single-ply,SBD
4,Neelam Dangi,84+,Open,F,2001-04-02,RAJ,98.65,230,120,155,505.0,Single-ply,SBD
5,Susmita Das,84+,Open,F,1997-08-21,W B,113.30,200,95,160,455.0,Single-ply,SBD
6,Mrunali Bhong,84+,Open,F,2002-03-13,MAH,88.00,167.5,90,142.5,400.0,Single-ply,SBD
1,Puthiyandi Suresh Purayil Suresh,59,Open,M,1981-05-27,J&K,59.00,285,192.5,210,687.5,Single-ply,SBD
2,Dharmendra Yadav #1,59,Open,M,1993-10-01,MAH,59.00,252.5,177.5,237.5,667.5,Single-ply,SBD
3,Adarsh Bharath Attavar,59,Open,M,2000-05-04,RSPB,58.93,262.5,132.5,262.5,657.5,Single-ply,SBD
4,D. Muralikrishna,59,Open,M,2001-08-20,A P,58.94,262.5,127.5,262.5,652.5,Single-ply,SBD
5,Kannan Vijayan,59,Open,M,1994-11-08,A&N,59.00,250,157.5,220,627.5,Single-ply,SBD
6,Rahul Roy,59,Open,M,1991-09-19,ASA,58.80,235,130,245,610.0,Single-ply,SBD
7,Neeraj Kumar Yadav,59,Open,M,2002-06-30,MAH,58.70,235,142.5,220,597.5,Single-ply,SBD
8,Khushal Patel,59,Open,M,2002-02-11,CHT,58.90,225,142.5,230,597.5,Single-ply,SBD
9,Govind Kumar,59,Open,M,1994-01-15,BIH,58.90,245,120,230,595.0,Single-ply,SBD
10,Gaurav Pachori,59,Open,M,2002-09-04,M P,58.90,225,120,200,545.0,Single-ply,SBD
11,Syed Nazim Afrid,59,Open,M,2000-11-23,ASA,59.00,200,117.5,190,507.5,Single-ply,SBD
DQ,Sachin K,59,Open,M,2005-05-25,KAR,55.90,175,,180,,Single-ply,SBD
DQ,Bidyajoy Huirem,59,Open,M,1996-02-15,MAN,56.90,,,,,Single-ply,SBD
DQ,Kundan Kumar,59,Open,M,1994-12-26,BIH,59.00,,140,210,,Single-ply,SBD
1,Pradeep Kumar #7,66,Open,M,1991-11-26,RSPB,66.00,285,167.5,260,712.5,Single-ply,SBD
2,Bibin Joy,66,Open,M,1996-03-19,KER,65.85,295,167.5,247.5,710.0,Single-ply,SBD
3,Tushar Kadam,66,Open,M,2001-02-14,VID,66.00,270,160,272.5,702.5,Single-ply,SBD
4,M Vamsi,66,Open,M,2003-08-10,TEL,65.40,305,145,250,700.0,Single-ply,SBD
5,N Sarath,66,Open,M,2004-01-27,A P,66.00,240,117.5,286,643.5,Single-ply,SBD
6,Paramjeet,66,Open,M,1997-11-10,HAR,65.70,240,115,230,585.0,Single-ply,SBD
7,Nagaraju A,66,Open,M,1999-11-01,KAR,65.30,220,122.5,220,562.5,Single-ply,SBD
8,Sharon Patrick Arockiaswamy,66,Open,M,2003-09-20,KAR,64.40,202.5,120,225,547.5,Single-ply,SBD
9,Varun Chowdhary,66,Open,M,1988-02-13,CHN,64.50,175,127.5,207.5,510.0,Single-ply,SBD
10,Jaideep Sahu,66,Open,M,1995-01-23,CHT,64.10,175,95,165,435.0,Single-ply,SBD
DQ,Trailukya Gogoi,66,Open,M,1996-06-18,ASA,64.35,,,,,Single-ply,SBD
DQ,Venkatesh Konar,66,Open,M,2002-04-07,MAH,65.25,290,,265,,Single-ply,SBD
DQ,Sahil Mangesh Utekar,66,Open,M,1996-10-27,MAH,65.35,275,175,,,Single-ply,SBD
1,Sheik Mohamed Ali,74,Open,M,1999-10-07,UTK,73.55,305,190,277.5,772.5,Single-ply,SBD
2,Prabhu B,74,Open,M,1998-07-18,RSPB,73.60,305,175,280,760.0,Single-ply,SBD
3,Aman Singh,74,Open,M,1998-08-11,VID,74.00,295,175,272.5,742.5,Single-ply,SBD
4,Govindasamy B,74,Open,M,1994-03-16,A&N,73.70,290,157.5,285,732.5,Single-ply,SBD
5,Arji Balakrishna,74,Open,M,1995-10-20,A P,72.75,285,170,260,715.0,Single-ply,SBD
6,Punith Raghavan,74,Open,M,2001-10-16,KAR,73.00,285,142.5,285,712.5,Single-ply,SBD
7,Santhosh R,74,Open,M,2005-07-28,T N,74.00,285,160,255,700.0,Single-ply,SBD
8,P. Vamshi Krishna,74,Open,M,2003-01-14,A P,72.75,255,152.5,280,687.5,Single-ply,SBD
9,Aman Bhagat,74,Open,M,2001-04-06,M P,72.55,250,162.5,257.5,670.0,Single-ply,SBD
10,Omkar Chaurasiya,74,Open,M,2001-06-20,GOA,73.55,240,147.5,225,612.5,Single-ply,SBD
11,Tanveer Ahamed T,74,Open,M,2000-05-12,KAR,71.60,240,130,230,600.0,Single-ply,SBD
12,M. Shrenik,74,Open,M,1996-08-29,TEL,70.95,225,112.5,245,582.5,Single-ply,SBD
13,Tarang Bombale,74,Open,M,2001-05-14,VID,73.85,200,122.5,220,542.5,Single-ply,SBD
14,Sumant Kumar,74,Open,M,1999-10-29,BIH,71.09,195,102.5,215,512.5,Single-ply,SBD
15,Karan Salwan,74,Open,M,2002-11-22,CHN,66.60,170,90,165,425.0,Single-ply,SBD
DQ,Salam Paras Singh,74,Open,M,1996-05-27,MAN,70.85,,,,,Single-ply,SBD
DQ,Hanjabam Deepraj Sharma,74,Open,M,2005-06-07,MAN,71.35,,,,,Single-ply,SBD
DQ,Thamizharasan S,74,Open,M,1990-06-10,A&N,72.65,,,,,Single-ply,SBD
DQ,Abhishek #5,74,Open,M,2000-10-11,HAR,73.10,,,,,Single-ply,SBD
DQ,Naresh,74,Open,M,1999-09-16,HAR,73.25,,150,212.5,,Single-ply,SBD
DQ,Raju Chakraborty,74,Open,M,1981-10-11,W B,73.30,,165,,,Single-ply,SBD
DQ,Shailesh Thawait,74,Open,M,1993-02-15,CHT,73.40,,150,250,,Single-ply,SBD
1,Dharmendra Yadav #2,83,Open,M,1998-03-30,U P,81.95,305,220,310,835.0,Single-ply,SBD
2,Bijin Sanki,83,Open,M,2000-03-20,RSPB,82.00,317.5,202.5,312.5,832.5,Single-ply,SBD
3,Kchetrapal Singh,83,Open,M,2001-01-01,RAJ,82.15,305,212.5,292.5,810.0,Single-ply,SBD
4,Pradeep Kumar #3,83,Open,M,1988-05-04,KAR,82.40,300,233.5,270,803.5,Single-ply,SBD
5,Abhishek Sharma,83,Open,M,2001-07-01,PUN,81.25,307.5,197.5,285,790.0,Single-ply,SBD
6,Bharath Ravi,83,Open,M,2000-02-11,T N,81.65,305,195,285,785.0,Single-ply,SBD
7,Govindaraj Kaliyamoorthy,83,Open,M,1988-11-21,A&N,81.70,295,187.5,290,772.5,Single-ply,SBD
8,Arunkumaar G P,83,Open,M,1993-01-03,T N,82.85,295,172.5,305,772.5,Single-ply,SBD
9,G. Ramesh,83,Open,M,1993-12-19,TEL,83.00,302.5,172.5,285,760.0,Single-ply,SBD
10,Chandan Kumar Singh,83,Open,M,1998-05-03,BIH,82.80,295,150,260,705.0,Single-ply,SBD
11,Mohamad Ihsan S,83,Open,M,2002-02-22,KER,81.90,260,172.5,265,697.5,Single-ply,SBD
12,Arpan Kothare,83,Open,M,1990-11-26,VID,78.15,250,140,210,600.0,Single-ply,SBD
13,Manodeep Shil,83,Open,M,1997-12-27,W B,81.70,220,130,230,580.0,Single-ply,SBD
14,Vijay Ram,83,Open,M,1975-10-12,BSNL,79.95,210,150,215,575.0,Single-ply,SBD
DQ,G Siva Kumar,83,Open,M,1990-06-06,CHT,80.65,,160,285,,Single-ply,SBD
DQ,Shomik Das,83,Open,M,1995-02-15,VID,81.90,,140,200,,Single-ply,SBD
DQ,Rishabh Kala,83,Open,M,2000-08-18,UTK,82.20,,100,270,,Single-ply,SBD
DQ,Sandeep Bansal,83,Open,M,2004-01-11,U P,82.20,290,180,,,Single-ply,SBD
DQ,Lakhveer Singh,83,Open,M,1996-01-10,UTK,82.35,,,,,Single-ply,SBD
DQ,B. Anil Kumar,83,Open,M,2000-03-22,A P,82.65,,195,290,,Single-ply,SBD
DQ,Sushil Sharma,83,Open,M,1989-04-24,J&K,82.80,,115,155,,Single-ply,SBD
1,C. Arivalagan,93,Open,M,1995-09-26,RSPB,92.20,380,205,315,900.0,Single-ply,SBD
2,C. Mohan Kumar,93,Open,M,1996-05-26,CHT,93.00,355,200,280,835.0,Single-ply,SBD
3,Udho Kumar,93,Open,M,1999-04-03,PUN,88.75,345,195,270,810.0,Single-ply,SBD
4,Shashank Tariyal,93,Open,M,1994-10-08,UTK,91.70,305,185,255,745.0,Single-ply,SBD
5,Shibin S,93,Open,M,2001-12-23,KER,84.80,292.5,152.5,275,720.0,Single-ply,SBD
6,Blesson Bosco,93,Open,M,1995-03-25,CHT,86.90,280,190,240,710.0,Single-ply,SBD
7,Yash Chavan,93,Open,M,2001-10-22,GUJ,89.25,275,155,237.5,667.5,Single-ply,SBD
8,Adarsh Raj,93,Open,M,1995-08-14,BIH,89.00,255,150,220,625.0,Single-ply,SBD
DQ,Sanjay Kumar,93,Open,M,2000-04-04,PUN,88.30,307.5,182.5,,,Single-ply,SBD
DQ,Vivek Kumar,93,Open,M,1997-02-16,DEL,91.00,320,227.5,,,Single-ply,SBD
DQ,Parv Atri,93,Open,M,2003-04-18,J&K,91.75,,130,160,,Single-ply,SBD
DQ,Dharampal Yadav,93,Open,M,2003-01-15,U P,91.95,310,195,,,Single-ply,SBD
DQ,Dilshad Hussain,93,Open,M,1996-04-10,RSPB,92.95,317.5,,,,Single-ply,SBD
DQ,Christober Kumar,93,Open,M,2002-09-09,T N,93.00,285,,270,,Single-ply,SBD
DQ,Yurender Kumar,93,Open,M,2000-09-05,RAJ,93.00,,,,,Single-ply,SBD
DQ,Vaibhav Sanwal,93,Open,M,2001-08-30,UTK,92.70,,,,,Single-ply,SBD
1,Ruturaj Prakash Patil,105,Open,M,1999-11-26,MAH,102.70,347.5,205,320,872.5,Single-ply,SBD
2,Gopi M,105,Open,M,1991-04-24,T N,103.45,340,205,282.5,827.5,Single-ply,SBD
3,Ashwin Solanki,105,Open,M,1998-03-30,MAH,103.90,320,190,300,810.0,Single-ply,SBD
4,Prameesh Singh,105,Open,M,2000-02-03,M P,104.50,315,215,275,805.0,Single-ply,SBD
5,Akhilesh Kumar,105,Open,M,1991-08-07,U P,99.70,320,200,275,795.0,Single-ply,SBD
6,Arpan Majumder,105,Open,M,2001-04-19,W B,103.40,315,205,255,775.0,Single-ply,SBD
7,Mohammed Arif Anwar,105,Open,M,2002-02-15,KER,104.85,335,180,260,775.0,Single-ply,SBD
8,Azadpreet Singh Gill,105,Open,M,1989-08-24,PUN,103.50,320,155,290,765.0,Single-ply,SBD
9,Snehraj Singh Panwar,105,Open,M,2000-12-02,M P,102.30,300,175,280,755.0,Single-ply,SBD
10,Sachina Tukarama Salunke,105,Open,M,2000-01-18,KAR,103.35,305,175,255,735.0,Single-ply,SBD
11,Srinu,105,Open,M,2001-11-11,CHT,105.00,280,182.5,247.5,710.0,Single-ply,SBD
12,Nitish Kumar #1,105,Open,M,1993-10-02,BIH,101.25,270,147.5,250,667.5,Single-ply,SBD
13,Vishal Saini,105,Open,M,2003-12-05,UTK,95.00,260,152.5,235,647.5,Single-ply,SBD
DQ,Mandeep Singh,105,Open,M,2001-11-04,RAJ,93.20,,142.5,240,,Single-ply,SBD
DQ,Navpreet Singh,105,Open,M,2004-09-19,PUN,96.50,,,,,Single-ply,SBD
DQ,Parduman,105,Open,M,2001-04-16,HAR,101.20,350,,315,,Single-ply,SBD
DQ,Mohammmad Danish Mohammad Shakil,105,Open,M,1996-04-12,VID,103.75,310,227.5,,,Single-ply,SBD
DQ,Bharanidharan B,105,Open,M,1998-06-21,T N,104.25,372.5,,,,Single-ply,SBD
DQ,Raj Prasad Rajak,105,Open,M,1997-12-08,W B,104.75,,,,,Single-ply,SBD
DQ,Priyabrata Bisoi,105,Open,M,2001-08-06,ODI,105.00,,,,,Single-ply,SBD
DQ,Vinay,105,Open,M,1990-09-07,DEL,105.00,,,,,Single-ply,SBD
1,Rahul #5,120,Open,M,2000-10-06,HAR,114.75,370,262.5,260,892.5,Single-ply,SBD
2,Ajinkya Prakash Padvankar,120,Open,M,1987-11-06,MAH,106.55,300,205,270,775.0,Single-ply,SBD
3,Muhammed Saam Anwar,120,Open,M,2004-04-07,KER,109.40,280,150,275,705.0,Single-ply,SBD
4,Hari Narayan Dubey,120,Open,M,1986-09-18,U P,105.80,220,150,200,570.0,Single-ply,SBD
5,Monish Chakrawarty,120,Open,M,2005-03-06,M P,115.65,225,100,225,550.0,Single-ply,SBD
6,Aakash Dutt,120,Open,M,1989-11-12,J&K,107.30,170,192.5,180,542.5,Single-ply,SBD
DQ,Jeeten Nilesh Rane,120,Open,M,2000-10-07,MAH,105.60,360,187.5,,,Single-ply,SBD
DQ,Tapubrata Gogoi,120,Open,M,1996-01-04,ASA,108.40,,200,,,Single-ply,SBD
DQ,Gurwinder Singh #4,120,Open,M,1995-11-22,PUN,110.50,,,,,Single-ply,SBD
DQ,Umamaheshwaran Murugesan,120,Open,M,1997-07-17,T N,111.85,,230,,,Single-ply,SBD
DQ,Manish Gehlot,120,Open,M,2000-05-04,U P,112.10,,,,,Single-ply,SBD
DQ,Pankaj Tyagi,120,Open,M,1989-11-02,DEL,116.45,,,,,Single-ply,SBD
DQ,Parbhjeet Singh Sandhu,120,Open,M,1989-01-01,RAJ,118.50,377.5,247.5,,,Single-ply,SBD
DQ,Ajay James,120,Open,M,1998-09-22,KER,118.65,,,,,Single-ply,SBD
DQ,Prem Kumar,120,Open,M,1980-07-25,BSNL,118.75,,,,,Single-ply,SBD
DQ,Gourav Sharma #2,120,Open,M,2000-09-11,J&K,120.00,390,205,,,Single-ply,SBD
1,Apoorv Dubey,120+,Open,M,1993-03-28,M P,125.75,320,220,275,815.0,Single-ply,SBD
2,Shaik Saquib Basha,120+,Open,M,1996-08-29,A P,142.10,345,150,285,780.0,Single-ply,SBD
3,Mohit Kumar #2,120+,Open,M,1989-06-21,HAR,120.55,310,195,260,765.0,Single-ply,SBD
4,Rinku Dagar,120+,Open,M,1992-02-05,DEL,120.10,310,202.5,250,762.5,Single-ply,SBD
5,Asif Ali Khan,120+,Open,M,1994-09-06,CHT,138.40,290,240,230,760.0,Single-ply,SBD
DQ,Gagan Kwatra,120+,Open,M,1997-09-14,PUN,141.35,,217.5,295,,Single-ply,SBD
DQ,Vickram Jeet Singh,120+,Open,M,1996-04-06,J&K,165.80,350,170,,,Single-ply,SBD
