Division,WeightClassKg,Place,Name,Team,BodyweightKg,Best3SquatKg,Best3BenchKg,Best3DeadliftKg,TotalKg,Equipment,Event,Sex,BirthDate
Boys,51.71,1,Leonardo Ruiz,Hidalgo Early College,50.62,167.83,124.74,176.9,469.47,Unlimited,SBD,M,
Boys,51.71,2,Vicente Azuara,Port Isabel,51.62,149.69,90.72,163.29,403.7,Unlimited,SBD,M,
Boys,51.71,3,Daniel Perez,Hidalgo Early College,50.44,133.81,102.06,154.22,390.09,Unlimited,SBD,M,
Boys,51.71,4,Marc Leos,La Feria,48.99,147.42,79.38,158.76,385.55,Unlimited,SBD,M,
Boys,51.71,5,Alvaro Valdez,Hidalgo Early College,50.35,151.95,90.72,142.88,385.55,Unlimited,SBD,M,
Boys,51.71,6,Arnold Lopez,Port Isabel,50.62,136.08,83.91,165.56,385.55,Unlimited,SBD,M,
Boys,51.71,7,Josh Ramirez,Somerset,51.35,138.35,63.5,163.29,365.14,Unlimited,SBD,M,
Boys,51.71,8,Juan Rendon,Devine,51.07,136.08,65.77,142.88,344.73,Unlimited,SBD,M,
Boys,51.71,9,Alejandro Briseno,Pearsall,51.71,117.93,68.04,154.22,340.19,Unlimited,SBD,M,
Boys,51.71,10,Damian Perez,Hidalgo Early College,47.99,111.13,88.45,131.54,331.12,Unlimited,SBD,M,
Boys,51.71,11,Mark Garcia,Pearsall,51.17,124.74,68.04,136.08,328.85,Unlimited,SBD,M,
Boys,51.71,12,Marc Ramirez,Pearsall,51.62,122.47,68.04,122.47,312.98,Unlimited,SBD,M,
Boys,51.71,DQ,Emiliano Garcia,Bishop,50.98,127.01,,,,Unlimited,SBD,M,
Boys,55.79,1,John Contreras,Beeville Jones,54.79,206.38,104.33,219.99,530.7,Unlimited,SBD,M,
Boys,55.79,2,Dorian Ramirez,Hidalgo Early College,54.98,208.65,124.74,174.63,508.02,Unlimited,SBD,M,
Boys,55.79,3,Juventino Zapata,Zapata,55.79,167.83,97.52,192.78,458.13,Unlimited,SBD,M,
Boys,55.79,4,Caleb De La Cerda,Corpus Christi Tuloso-Midway,54.88,170.1,108.86,158.76,437.72,Unlimited,SBD,M,
Boys,55.79,5,Tanner Weaver,Orange Grove,55.43,167.83,97.52,165.56,430.91,Unlimited,SBD,M,
Boys,55.79,6,Connor Rackley,Corpus Christi Calallen,54.79,154.22,102.06,165.56,421.84,Unlimited,SBD,M,
Boys,55.79,7,Jesus Martinez,Zapata,54.98,161.03,86.18,161.03,408.23,Unlimited,SBD,M,
Boys,55.79,8,David Velasquez #1,San Antonio Memorial,54.98,154.22,68.04,176.9,399.16,Unlimited,SBD,M,
Boys,55.79,9,Joe Guerrero,Devine,54.52,158.76,83.91,149.69,392.36,Unlimited,SBD,M,
Boys,55.79,10,Michael Contreras,Alice,53.43,133.81,83.91,147.42,365.14,Unlimited,SBD,M,
Boys,55.79,11,Julio Palomo,Bishop,54.98,131.54,86.18,145.15,362.87,Unlimited,SBD,M,
Boys,55.79,DQ,Diego Mendoza,Devine,52.34,,,,,Unlimited,SBD,M,
Boys,59.87,1,Juventino Guerrero,Hidalgo Early College,59.15,219.99,136.08,215.46,571.53,Unlimited,SBD,M,
Boys,59.87,2,Sammy Ronje,Bishop,58.97,185.97,124.74,195.04,505.76,Unlimited,SBD,M,
Boys,59.87,3,Jonah Lopez,San Antonio Memorial,59.15,215.46,102.06,188.24,505.76,Unlimited,SBD,M,
Boys,59.87,4,Hector Garcia,Carrizo Springs,59.33,176.9,124.74,176.9,478.54,Unlimited,SBD,M,
Boys,59.87,5,Traey Alvarado,Rockport-Fulton,59.69,170.1,104.33,183.7,458.13,Unlimited,SBD,M,
Boys,59.87,6,Tre Ortega,Bishop,59.42,165.56,92.99,188.24,446.79,Unlimited,SBD,M,
Boys,59.87,7,Sonny Imming,Somerset,57.97,167.83,106.59,170.1,444.52,Unlimited,SBD,M,
Boys,59.87,8,David Salinas,Corpus Christi Calallen,59.51,172.37,111.13,158.76,442.25,Unlimited,SBD,M,
Boys,59.87,9,Hector Garcia,Floresville,58.6,165.56,111.13,161.03,437.72,Unlimited,SBD,M,
Boys,59.87,10,Mark Diaz,Bishop,59.6,165.56,86.18,170.1,421.84,Unlimited,SBD,M,
Boys,59.87,11,Harley Anderson,Floresville,59.51,158.76,86.18,170.1,415.04,Unlimited,SBD,M,
Boys,59.87,DQ,Christopher Loera,San Antonio Kennedy,59.87,192.78,97.52,,,Unlimited,SBD,M,
Boys,59.87,DQ,Gilbert Perez,Corpus Christi Tuloso-Midway,59.15,190.51,106.59,,,Unlimited,SBD,M,
Boys,59.87,DQ,Esteban Garcia,Alice,59.87,174.63,,,,Unlimited,SBD,M,
Boys,67.13,1,Tristian Davila,Corpus Christi Tuloso-Midway,65.5,210.92,147.42,247.21,605.55,Unlimited,SBD,M,
Boys,67.13,2,Juan Garcia,Beeville Jones,66.77,206.38,149.69,226.8,582.87,Unlimited,SBD,M,
Boys,67.13,3,Noah Garcia,Somerset,65.05,217.72,158.76,192.78,569.26,Unlimited,SBD,M,
Boys,67.13,4,Seth DeLeon,Devine,66.13,204.12,145.15,204.12,553.38,Unlimited,SBD,M,
Boys,67.13,5,P J Brown,Alice,66.22,188.24,136.08,219.99,544.31,Unlimited,SBD,M,
Boys,67.13,6,Chris Veloz,Zapata,65.86,197.31,120.2,213.19,530.7,Unlimited,SBD,M,
Boys,67.13,7,Landen Longoria,Sinton,65.95,201.85,106.59,219.99,528.44,Unlimited,SBD,M,
Boys,67.13,8,Hernandez Victor,Rio Grande City Grulla,65.86,199.58,129.27,190.51,519.36,Unlimited,SBD,M,
Boys,67.13,9,Michael Ramos,Rockport-Fulton,66.77,197.31,115.67,204.12,517.1,Unlimited,SBD,M,
Boys,67.13,10,Roman Martinez,Pleasanton,66.41,179.17,111.13,213.19,503.49,Unlimited,SBD,M,
Boys,67.13,11,Joseph Salazar,Zapata,65.77,183.7,99.79,208.65,492.15,Unlimited,SBD,M,
Boys,67.13,NS,Kaydin Olle,Pleasanton,,,,,,Unlimited,SBD,M,
Boys,67.13,DQ,Robbie Longoria,Pearsall,66.13,,,,,Unlimited,SBD,M,
Boys,74.84,1,Josiah Lugo,Somerset,73.39,285.76,167.83,240.4,694,Unlimited,SBD,M,
Boys,74.84,2,Lucian Medina,Corpus Christi Calallen,74.12,240.4,183.7,226.8,650.91,Unlimited,SBD,M,
Boys,74.84,3,Miguel Barrera,Hidalgo Early College,73.75,265.35,149.69,229.06,644.1,Unlimited,SBD,M,
Boys,74.84,4,Kingston Martinez,Pearsall,73.12,244.94,142.88,244.94,632.76,Unlimited,SBD,M,
Boys,74.84,5,Damien Jimenez,Bishop,74.12,249.48,142.88,208.65,601.01,Unlimited,SBD,M,
Boys,74.84,6,Noah Vento,La Feria,72.12,231.33,129.27,229.06,589.67,Unlimited,SBD,M,
Boys,74.84,7,Nicholas Morales,La Feria,72.12,222.26,147.42,195.04,564.72,Unlimited,SBD,M,
Boys,74.84,8,Christian Sosa,La Feria,71.21,238.14,122.47,195.04,555.65,Unlimited,SBD,M,
Boys,74.84,9,Gabe Garza,Robstown,74.03,201.85,154.22,195.04,551.11,Unlimited,SBD,M,
Boys,74.84,10,Marco Vasquez,Alice,72.48,185.97,127.01,226.8,539.77,Unlimited,SBD,M,
Boys,74.84,11,Chase Mrazek,Bishop,74.53,208.65,117.93,208.65,535.24,Unlimited,SBD,M,
Boys,74.84,DQ,Matthew Chavez,Bandera,73.75,206.38,,,,Unlimited,SBD,M,
Boys,74.84,DQ,Nik Garza,Alice,71.49,231.33,,,,Unlimited,SBD,M,
Boys,82.1,1,Christopher Guerrero,Raymondville,81.1,260.82,161.03,238.14,659.98,Unlimited,SBD,M,
Boys,82.1,2,Ruben Campos,Hidalgo Early College,81.74,249.48,165.56,226.8,641.83,Unlimited,SBD,M,
Boys,82.1,3,Zachariah Smith,Beeville Jones,77.02,265.35,138.35,233.6,637.3,Unlimited,SBD,M,
Boys,82.1,4,Raul Galvan,Rio Grande City Grulla,80.56,272.16,136.08,222.26,630.49,Unlimited,SBD,M,
Boys,82.1,5,Joaquin Soliz,Corpus Christi Calallen,78.74,233.6,149.69,244.94,628.23,Unlimited,SBD,M,
Boys,82.1,6,Jadon Sanchez,Ingleside,80.65,233.6,151.95,233.6,619.15,Unlimited,SBD,M,
Boys,82.1,7,Ariel Hernandez,Pearsall,79.74,235.87,158.76,222.26,616.89,Unlimited,SBD,M,
Boys,82.1,8,Kade Alston,Rockport-Fulton,82.1,238.14,142.88,231.33,612.35,Unlimited,SBD,M,
Boys,82.1,9,Kohl Garcia,Bishop,81.92,238.14,136.08,215.46,589.67,Unlimited,SBD,M,
Boys,82.1,10,Ryne Espinoza,Beeville Jones,77.75,226.8,142.88,204.12,573.79,Unlimited,SBD,M,
Boys,82.1,11,Aaron Barrera #2,Port Isabel,79.02,201.85,161.03,208.65,571.53,Unlimited,SBD,M,
Boys,82.1,12,Orlando Coleman,San Antonio Cornerstone Christian School,79.38,188.24,127.01,217.72,532.97,Unlimited,SBD,M,
Boys,82.1,NS,Esteban Gonzalez,La Feria,,,,,,Unlimited,SBD,M,
Boys,82.1,DQ,Travis Menchaca,La Feria,80.38,283.5,151.95,,,Unlimited,SBD,M,
Boys,89.81,1,Matthew Jimenez,Raymondville,86.09,288.03,156.49,238.14,682.66,Unlimited,SBD,M,
Boys,89.81,2,Aydan Sarate,Beeville Jones,85.73,244.94,183.7,226.8,655.44,Unlimited,SBD,M,
Boys,89.81,3,Augustine Aviles,Uvalde,87,249.48,161.03,235.87,646.37,Unlimited,SBD,M,
Boys,89.81,4,Frank Munguia,Corpus Christi Tuloso-Midway,88.27,238.14,156.49,242.67,637.3,Unlimited,SBD,M,
Boys,89.81,5,Jason Coronado,Floresville,88.81,233.6,145.15,256.28,635.03,Unlimited,SBD,M,
Boys,89.81,6,Adrian Wilson,Floresville,89.63,233.6,136.08,222.26,591.94,Unlimited,SBD,M,
Boys,89.81,7,Kaleb Clinton,Port Isabel,88.99,226.8,131.54,219.99,578.33,Unlimited,SBD,M,
Boys,89.81,NS,Nicholas Cruz,Kingsville King,,,,,,Unlimited,SBD,M,
Boys,89.81,DQ,Matthew Ortiz,Orange Grove,88.36,267.62,,,,Unlimited,SBD,M,
Boys,89.81,DQ,Chuy Vasquez,Uvalde,87.45,229.06,127.01,,,Unlimited,SBD,M,
Boys,89.81,DQ,Zach Martinez,Devine,86.82,231.33,158.76,,,Unlimited,SBD,M,
Boys,89.81,DQ,Michael Guajardo,Corpus Christi Tuloso-Midway,87.63,242.67,,,,Unlimited,SBD,M,
Boys,89.81,DQ,Jonathan Lucio,Corpus Christi West Oso,85.73,217.72,,,,Unlimited,SBD,M,
Boys,89.81,DQ,Jarret Gest,Carrizo Springs,86,226.8,181.44,,,Unlimited,SBD,M,
Boys,99.79,1,Seth Morgan,Ingleside,93.35,301.64,201.85,292.57,796.05,Unlimited,SBD,M,
Boys,99.79,2,Alfredo Romero,San Antonio Kennedy,98.61,272.16,154.22,254.01,680.39,Unlimited,SBD,M,
Boys,99.79,3,Evan Eden,Corpus Christi Calallen,91.53,256.28,161.03,254.01,671.32,Unlimited,SBD,M,
Boys,99.79,4,Adrian Estrada,Rockport-Fulton,96.34,265.35,149.69,256.28,671.32,Unlimited,SBD,M,
Boys,99.79,5,Daniel Arellano,Floresville,93.71,242.67,167.83,254.01,664.51,Unlimited,SBD,M,
Boys,99.79,6,Ronnie Guerra,Zapata,97.89,274.42,138.35,247.21,659.98,Unlimited,SBD,M,
Boys,99.79,7,Joshua Minto,Corpus Christi Tuloso-Midway,98.7,242.67,149.69,238.14,630.49,Unlimited,SBD,M,
Boys,99.79,8,Ezequiel Palestina,Port Isabel,92.9,254.01,138.35,222.26,614.62,Unlimited,SBD,M,
Boys,99.79,9,Zeke Gonzales,Pleasanton,95.89,210.92,151.95,208.65,571.53,Unlimited,SBD,M,
Boys,99.79,DQ,Noah Jasso,Bishop,94.53,247.21,136.08,,,Unlimited,SBD,M,
Boys,99.79,DQ,Bernardo Bernabe,San Antonio Kennedy,96.43,,,,,Unlimited,SBD,M,
Boys,99.79,DQ,Leo Strozzi,Somerset,98.07,,,,,Unlimited,SBD,M,
Boys,99.79,DQ,Salvador Sanchez,Somerset,96.43,267.62,,,,Unlimited,SBD,M,
Boys,109.77,1,Gerardo Cantu,Somerset,105.51,294.84,204.12,272.16,771.11,Unlimited,SBD,M,
Boys,109.77,2,Victor Del Bosque,Orange Grove,107.23,283.5,210.92,247.21,741.62,Unlimited,SBD,M,
Boys,109.77,3,Randy Pedraza,Raymondville,107.32,288.03,183.7,265.35,737.09,Unlimited,SBD,M,
Boys,109.77,4,Cayetano Vidaurri,Beeville Jones,101.06,283.5,170.1,235.87,689.46,Unlimited,SBD,M,
Boys,109.77,5,Santiago Ortiz,Ingleside,107.41,244.94,183.7,235.87,664.51,Unlimited,SBD,M,
Boys,109.77,6,Aureliano Saenz,Corpus Christi Calallen,108.68,251.74,183.7,229.06,664.51,Unlimited,SBD,M,
Boys,109.77,7,Brandon Lopez,Rio Grande City Grulla,108.32,263.08,179.17,213.19,655.44,Unlimited,SBD,M,
Boys,109.77,8,Josue Lerma,San Antonio Holy Cross,106.14,240.4,165.56,222.26,628.23,Unlimited,SBD,M,
Boys,109.77,9,Fabian Saenz,Corpus Christi Calallen,101.6,256.28,140.61,219.99,616.89,Unlimited,SBD,M,
Boys,109.77,10,Marcos Acosta,Corpus Christi Calallen,101.88,229.06,147.42,213.19,589.67,Unlimited,SBD,M,
Boys,109.77,DQ,Lopez Brandon,Rio Grande City Grulla,108.32,,,,,Unlimited,SBD,M,
Boys,109.77,DQ,Malaki Lara,Uvalde,104.96,238.14,,,,Unlimited,SBD,M,
Boys,124.74,1,Aiden Hinojosa,Corpus Christi Calallen,118.75,340.19,217.72,272.16,830.07,Unlimited,SBD,M,
Boys,124.74,2,Robert Kroen,Corpus Christi Tuloso-Midway,121.29,285.76,192.78,272.16,750.7,Unlimited,SBD,M,
Boys,124.74,3,Gabriel Gutierrez,Pearsall,121.83,312.98,170.1,249.48,732.55,Unlimited,SBD,M,
Boys,124.74,4,Isaiah Ricondo,San Antonio Cornerstone Christian School,118.39,272.16,222.26,226.8,721.21,Unlimited,SBD,M,
Boys,124.74,5,Joseph Delarosa,Pearsall,124.19,226.8,226.8,229.06,682.66,Unlimited,SBD,M,
Boys,124.74,6,Colton Kalhoefer,Rockport-Fulton,113.58,249.48,170.1,249.48,669.05,Unlimited,SBD,M,
Boys,124.74,7,Aaron Graves,Uvalde,121.65,272.16,183.7,213.19,669.05,Unlimited,SBD,M,
Boys,124.74,8,Andrew Murillo,Pleasanton,118.84,269.89,174.63,215.46,659.98,Unlimited,SBD,M,
Boys,124.74,9,Reymundo Arellano,San Antonio Memorial,120.38,285.76,140.61,226.8,653.17,Unlimited,SBD,M,
Boys,124.74,10,Arnulfo Puga,Beeville Jones,112.22,278.96,147.42,204.12,630.49,Unlimited,SBD,M,
Boys,124.74,11,Seth Morales,La Feria,120.02,272.16,156.49,190.51,619.15,Unlimited,SBD,M,
Boys,124.74,NS,Alex Trevino,Robstown,,,,,,Unlimited,SBD,M,
Boys,124.74,DQ,Andrew Torres #5,Carrizo Springs,113.49,,,,,Unlimited,SBD,M,
Boys,139.71,1,Abraham Vasquez,Somerset,138.25,326.59,204.12,258.55,789.25,Unlimited,SBD,M,
Boys,139.71,2,Keegan Garcia,San Antonio Cornerstone Christian School,132.9,272.16,183.7,288.03,743.89,Unlimited,SBD,M,
Boys,139.71,3,Benjamin Oyervides,Robstown,126.55,260.82,210.92,254.01,725.75,Unlimited,SBD,M,
Boys,139.71,4,Joe Hernandez,Corpus Christi West Oso,130.45,272.16,226.8,226.8,725.75,Unlimited,SBD,M,
Boys,139.71,5,Sebastian Aguilar,Pleasanton,126.28,281.23,156.49,226.8,664.51,Unlimited,SBD,M,
Boys,139.71,6,Jonas Olivarez,Rockport-Fulton,131.36,249.48,183.7,229.06,662.24,Unlimited,SBD,M,
Boys,139.71,7,Noah Sizemore,Bandera,130.45,285.76,149.69,222.26,657.71,Unlimited,SBD,M,
Boys,139.71,8,Cristobal Ortega,La Feria,135.71,260.82,151.95,210.92,623.69,Unlimited,SBD,M,
Boys,139.71,9,Manuel Hernandez,Beeville Jones,132.54,238.14,176.9,183.7,598.74,Unlimited,SBD,M,
Boys,139.71,10,Becerra Juan,Rio Grande City Grulla,131.9,244.94,145.15,183.7,573.79,Unlimited,SBD,M,
Boys,139.71,NS,Brady Buchanan,Corpus Christi Calallen,,,,,,Unlimited,SBD,M,
Boys,139.71,NS,Rudy Sanchez,La Feria,,,,,,Unlimited,SBD,M,
Boys,139.71,DQ,Samuel Morales,Sinton,130.18,,,,,Unlimited,SBD,M,
Boys,139.71+,1,Mark Pena,Robstown,156.13,306.17,215.46,229.06,750.7,Unlimited,SBD,M,
Boys,139.71+,2,Diego Valdez,Pleasanton,141.88,292.57,201.85,235.87,730.28,Unlimited,SBD,M,
Boys,139.71+,3,Javier Adams,Somerset,167.56,258.55,174.63,244.94,678.12,Unlimited,SBD,M,
Boys,139.71+,4,Exodus Acevedo,Floresville,141.7,249.48,176.9,231.33,657.71,Unlimited,SBD,M,
Boys,139.71+,5,Logan Cardona,Alice,149.41,265.35,149.69,240.4,655.44,Unlimited,SBD,M,
Boys,139.71+,6,Adriel Gonzalez,Uvalde,158.49,285.76,154.22,213.19,653.17,Unlimited,SBD,M,
Boys,139.71+,7,Ryan Hughes,Pearsall,143.15,281.23,165.56,201.85,648.64,Unlimited,SBD,M,
Boys,139.71+,8,Ethan Samaniego,San Antonio Memorial,150.5,260.82,147.42,222.26,630.49,Unlimited,SBD,M,
Boys,139.71+,9,Ricardo Barba,La Feria,163.38,260.82,158.76,208.65,628.23,Unlimited,SBD,M,
Boys,139.71+,10,Carson Sifuentes,Corpus Christi Calallen,157.22,240.4,154.22,183.7,578.33,Unlimited,SBD,M,
Boys,139.71+,11,Luis Sanchez,San Antonio Holy Cross,157.31,213.19,142.88,222.26,578.33,Unlimited,SBD,M,
Boys,139.71+,12,Jacob Perez,Somerset,151.95,226.8,158.76,183.7,569.26,Unlimited,SBD,M,
Boys,139.71+,DQ,Nick Gomez,Raymondville,156.4,,,,,Unlimited,SBD,M,
