Division,WeightClassKg,Place,Name,Team,BodyweightKg,Best3SquatKg,Best3BenchKg,Best3DeadliftKg,TotalKg,Equipment,Event,Sex
Boys,51.71,1,Diego Gallegos,Alvin,51.03,161.03,99.79,185.97,446.79,Single-ply,SBD,M
Boys,51.71,2,Nate Colborn,Montgomery,44.23,113.4,52.16,113.4,278.96,Single-ply,SBD,M
Boys,51.71,3,Kase Mitchell,Conroe The Woodlands,48.99,97.52,58.97,104.33,260.82,Single-ply,SBD,M
Boys,51.71,4,Alec Ohnheiser,Conroe,48.53,97.52,63.5,92.99,254.01,Single-ply,SBD,M
Boys,51.71,5,Blaise Ohnheiser,Conroe,45.81,95.25,47.63,92.99,235.87,Single-ply,SBD,M
Boys,51.71,6,Ethan Weems,Conroe,46.27,88.45,43.09,92.99,224.53,Single-ply,SBD,M
Boys,55.79,1,Matthew Longoria,Alvin,55.57,181.44,133.81,190.51,505.76,Single-ply,SBD,M
Boys,55.79,2,Ashton Mashaw,Conroe Caney Creek,55.34,158.76,83.91,174.63,417.3,Single-ply,SBD,M
Boys,55.79,3,Oscar Puente,New Caney,54.43,108.86,63.5,140.61,312.98,Single-ply,SBD,M
Boys,55.79,4,Noel Spurlock,Montgomery,54.43,115.67,58.97,138.35,312.98,Single-ply,SBD,M
Boys,59.87,1,Jessy Yanez,Channelview,58.29,167.83,86.18,185.97,439.98,Single-ply,SBD,M
Boys,59.87,2,Anthony Ramirez,Alvin,59.87,136.08,108.86,165.56,410.5,Single-ply,SBD,M
Boys,59.87,3,Ryan Levy,Beaumont West Brook,58.06,124.74,74.84,158.76,358.34,Single-ply,SBD,M
Boys,59.87,4,Christian Flores,Alvin,58.06,131.54,72.57,147.42,351.53,Single-ply,SBD,M
Boys,59.87,5,Zach Mills,Conroe Woodlands College Park,57.83,104.33,70.31,127.01,301.64,Single-ply,SBD,M
Boys,59.87,6,Jack Lockhart,Conroe The Woodlands,56.25,108.86,72.57,104.33,285.76,Single-ply,SBD,M
Boys,59.87,7,Joe Simpson #1,Beaumont West Brook,58.29,104.33,,,104.33,Single-ply,S,M
Boys,67.13,1,James Traylor,Montgomery,60.55,181.44,95.25,217.72,494.42,Single-ply,SBD,M
Boys,67.13,2,Chad Currie,Coldspring-Oakhurst,66.22,190.51,106.59,165.56,462.66,Single-ply,SBD,M
Boys,67.13,3,Tim Roman,Conroe,67.13,190.51,77.11,185.97,453.59,Single-ply,SBD,M
Boys,67.13,4,Demarcus Colman,Beaumont West Brook,62.6,174.63,92.99,170.1,437.72,Single-ply,SBD,M
Boys,67.13,5,Jacob Jackson,Conroe Woodlands College Park,64.86,163.29,113.4,161.03,437.72,Single-ply,SBD,M
Boys,67.13,6,Marc Banda,Alvin,64.86,163.29,92.99,167.83,424.11,Single-ply,SBD,M
Boys,67.13,7,Cameron Charles,Channelview,65.77,131.54,81.65,179.17,392.36,Single-ply,SBD,M
Boys,67.13,DQ,Kenny Bounds,Montgomery,66.22,,,,,Single-ply,SBD,M
Boys,74.84,1,Dawson Nobriga,Channelview,73.26,226.8,151.95,215.46,594.21,Single-ply,SBD,M
Boys,74.84,2,Kaku Asare,Conroe Woodlands College Park,69.4,192.78,104.33,183.7,480.81,Single-ply,SBD,M
Boys,74.84,3,Noah Delahoussey,Montgomery,70.08,197.31,102.06,181.44,480.81,Single-ply,SBD,M
Boys,74.84,4,Laveal Gibson,Channelview,71.44,158.76,90.72,183.7,433.18,Single-ply,SBD,M
Boys,74.84,5,Jacob Willard,Conroe The Woodlands,73.94,163.29,83.91,172.37,419.57,Single-ply,SBD,M
Boys,74.84,6,Perry Irchirl,Conroe The Woodlands,70.08,156.49,95.25,165.56,417.3,Single-ply,SBD,M
Boys,74.84,7,Derrion Price,Conroe,73.71,147.42,92.99,161.03,401.43,Single-ply,SBD,M
Boys,74.84,8,Taylor Lipscey,Montgomery,72.12,145.15,102.06,147.42,394.63,Single-ply,SBD,M
Boys,74.84,9,Anthony Geffert,New Caney,68.72,122.47,74.84,131.54,328.85,Single-ply,SBD,M
Boys,82.1,1,Cedric Lee,Port Arthur Memorial,76.43,192.78,124.74,238.14,555.65,Single-ply,SBD,M
Boys,82.1,2,Kobe Martin,Port Arthur Memorial,77.11,192.78,124.74,192.78,510.29,Single-ply,SBD,M
Boys,82.1,3,Alejandro Cortina,Channelview,80.74,201.85,106.59,188.24,496.68,Single-ply,SBD,M
Boys,82.1,4,Seth Nance,Galveston Ball,82.1,188.24,102.06,199.58,489.88,Single-ply,SBD,M
Boys,82.1,5,Colton Camillo,Conroe,82.1,183.7,92.99,176.9,453.59,Single-ply,SBD,M
Boys,82.1,6,Danny Garcia,New Caney,77.11,183.7,92.99,158.76,435.45,Single-ply,SBD,M
Boys,82.1,7,Jt Moore,Conroe,82.1,188.24,92.99,154.22,435.45,Single-ply,SBD,M
Boys,82.1,8,Byron Aragon,Galveston Ball,78.24,106.59,77.11,124.74,308.44,Single-ply,SBD,M
Boys,82.1,DQ,Colton Canada,Montgomery,79.15,,,,,Single-ply,SBD,M
Boys,82.1,DQ,Ethan Robbins,Conroe Caney Creek,81.87,,,,,Single-ply,SBD,M
Boys,89.81,1,Roy Kelley,Conroe,88.45,285.76,129.27,274.42,689.46,Single-ply,SBD,M
Boys,89.81,2,Alejandro Hernandez,Beaumont West Brook,88.22,219.99,133.81,215.46,569.26,Single-ply,SBD,M
Boys,89.81,3,Darren Jones,Alvin,87.54,213.19,117.93,226.8,557.92,Single-ply,SBD,M
Boys,89.81,4,Blake Stilwell,Alvin,85.73,192.78,97.52,231.33,521.63,Single-ply,SBD,M
Boys,89.81,5,Grant Mountain,Conroe The Woodlands,85.96,195.04,104.33,215.46,514.83,Single-ply,SBD,M
Boys,89.81,6,Richard Garza,Beaumont West Brook,89.58,183.7,113.4,197.31,494.42,Single-ply,SBD,M
Boys,89.81,7,JuJuan Arnold,Beaumont West Brook,87.09,185.97,129.27,156.49,471.74,Single-ply,SBD,M
Boys,89.81,8,Branden Clay,Conroe The Woodlands,83.01,170.1,92.99,204.12,467.2,Single-ply,SBD,M
Boys,89.81,9,Evan Leonard,Beaumont West Brook,88,183.7,97.52,172.37,453.59,Single-ply,SBD,M
Boys,99.79,1,Kallen Miller,Montgomery,99.79,260.82,136.08,249.48,646.37,Single-ply,SBD,M
Boys,99.79,2,Brandon Mckean,Conroe Caney Creek,99.79,231.33,131.54,247.21,610.08,Single-ply,SBD,M
Boys,99.79,3,Caleb Richardson,New Caney,92.53,229.06,124.74,204.12,557.92,Single-ply,SBD,M
Boys,99.79,4,David Alsip,Conroe Caney Creek,93.21,199.58,111.13,204.12,514.83,Single-ply,SBD,M
Boys,99.79,5,Alfred Berry,Port Arthur Memorial,98.66,204.12,113.4,181.44,498.95,Single-ply,SBD,M
Boys,99.79,6,Malik Blake,Port Arthur Memorial,96.84,199.58,97.52,167.83,464.93,Single-ply,SBD,M
Boys,99.79,7,Brendan Callihan,Conroe The Woodlands,91.63,172.37,102.06,149.69,424.11,Single-ply,SBD,M
Boys,99.79,8,Christian Albino,Conroe Woodlands College Park,92.08,142.88,86.18,163.29,392.36,Single-ply,SBD,M
Boys,109.77,1,Marcus Garza,Conroe Caney Creek,107.5,283.5,163.29,238.14,684.92,Single-ply,SBD,M
Boys,109.77,2,Hunter Grimmett,Montgomery,106.37,260.82,167.83,235.87,664.51,Single-ply,SBD,M
Boys,109.77,3,Nick Johnston,Conroe,105.46,244.94,142.88,199.58,587.4,Single-ply,SBD,M
Boys,109.77,4,Dylan Weaver,Conroe,109.13,226.8,111.13,244.94,582.87,Single-ply,SBD,M
Boys,109.77,5,Kyu Oh,Conroe Woodlands College Park,102.97,238.14,124.74,215.46,578.33,Single-ply,SBD,M
Boys,109.77,6,Travis Null,Conroe,105.46,238.14,127.01,210.92,576.06,Single-ply,SBD,M
Boys,109.77,7,Gildardo Bernal,Channelview,103.42,229.06,129.27,213.19,571.53,Single-ply,SBD,M
Boys,109.77,8,Roberto Varvelo,Channelview,105.23,226.8,111.13,219.99,557.92,Single-ply,SBD,M
Boys,109.77,9,Marko Milosavljevic,Conroe The Woodlands,105.69,204.12,129.27,204.12,537.51,Single-ply,SBD,M
Boys,109.77,10,Nick Touch,Alvin,103.19,208.65,115.67,199.58,523.9,Single-ply,SBD,M
Boys,109.77,11,Taylor Bullock,Beaumont West Brook,107.05,156.49,127.01,215.46,498.95,Single-ply,SBD,M
Boys,109.77,12,Braydon Williams,Port Arthur Memorial,104.78,192.78,115.67,183.7,492.15,Single-ply,SBD,M
Boys,109.77,13,Daniel Castro,Conroe The Woodlands,109.77,190.51,99.79,179.17,469.47,Single-ply,SBD,M
Boys,109.77,14,Samuel Stephens,Port Arthur Memorial,107.73,199.58,102.06,158.76,460.4,Single-ply,SBD,M
Boys,109.77,15,Cameron Barr,Conroe Caney Creek,108.18,170.1,90.72,156.49,417.3,Single-ply,SBD,M
Boys,124.74,1,Kainen Collins,Port Arthur Memorial,121.11,217.72,142.88,272.16,632.76,Single-ply,SBD,M
Boys,124.74,2,Jacob Thompson #3,Conroe,119.07,240.4,136.08,233.6,610.08,Single-ply,SBD,M
Boys,124.74,3,Nathaniel Sandoval,Conroe Caney Creek,110.9,235.87,145.15,213.19,594.21,Single-ply,SBD,M
Boys,124.74,4,Max Joiner,Conroe,117.03,249.48,142.88,197.31,589.67,Single-ply,SBD,M
Boys,124.74,5,Manuel Alamanza,New Caney,118.16,235.87,122.47,226.8,585.13,Single-ply,SBD,M
Boys,124.74,6,JD Williams,Montgomery,120.88,226.8,129.27,222.26,578.33,Single-ply,SBD,M
Boys,124.74,7,DaJuan McMillan,Port Arthur Memorial,123.83,233.6,120.2,215.46,569.26,Single-ply,SBD,M
Boys,124.74,8,Aaron Mata,Alvin,111.13,208.65,129.27,204.12,542.04,Single-ply,SBD,M
Boys,124.74,9,Ryan Johanson,Montgomery,117.03,195.04,142.88,197.31,535.24,Single-ply,SBD,M
Boys,124.74,10,Blake Leslie,Montgomery,124.28,229.06,108.86,192.78,530.7,Single-ply,SBD,M
Boys,124.74,11,Ryan Nuegent,Conroe,119.07,206.38,111.13,210.92,528.44,Single-ply,SBD,M
Boys,124.74,12,Sean Dillon,Galveston Ball,121.11,199.58,124.74,199.58,523.9,Single-ply,SBD,M
Boys,124.74,13,Kainoah Nobriga-Ferris,Channelview,116.57,204.12,111.13,201.85,517.1,Single-ply,SBD,M
Boys,124.74,14,Keithen Scott,Beaumont West Brook,112.04,192.78,115.67,204.12,512.56,Single-ply,SBD,M
Boys,124.74,15,Jose Silva,Channelview,113.4,188.24,124.74,170.1,483.08,Single-ply,SBD,M
Boys,124.74,16,Rayan Darvishi,Conroe Woodlands College Park,122.47,172.37,88.45,167.83,428.64,Single-ply,SBD,M
Boys,124.74,17,Juan Yanez,Conroe Woodlands College Park,121.11,102.06,147.42,149.69,399.16,Single-ply,SBD,M
Boys,124.74,DQ,Max Cerino,Channelview,119.75,,,,,Single-ply,SBD,M
Boys,124.74+,1,Bernard Childs,Channelview,145.83,281.23,149.69,244.94,675.85,Single-ply,SBD,M
Boys,124.74+,2,Thomas Ratka,Alvin,127.91,256.28,154.22,233.6,644.1,Single-ply,SBD,M
Boys,124.74+,3,Noah Barajas,Alvin,142.43,215.46,133.81,201.85,551.11,Single-ply,SBD,M
Boys,124.74+,4,Kendall Majors,Beaumont West Brook,126.1,217.72,124.74,156.49,498.95,Single-ply,SBD,M
Boys,124.74+,5,Chris Chavis,Beaumont West Brook,132.45,181.44,106.59,185.97,474,Single-ply,SBD,M
Boys,124.74+,6,Benjamin Buruca,New Caney,128.59,158.76,79.38,192.78,430.91,Single-ply,SBD,M
Boys,124.74+,7,Michael Flores #5,Conroe Caney Creek,125.65,149.69,65.77,142.88,358.34,Single-ply,SBD,M
Boys,124.74+,8,Toddric Conner,Beaumont West Brook,132.45,156.49,,,156.49,Single-ply,S,M
Boys,,NS,Devon Turner,La Marque,,,,,,Single-ply,SBD,M
