Division,WeightClassKg,Place,Name,Team,BodyweightKg,Best3SquatKg,Best3BenchKg,Best3DeadliftKg,TotalKg,Equipment,Event,Sex
Boys,51.71,1,Felix Espinoza,Crandall,50.8,145.15,86.18,145.15,376.48,Single-ply,SBD,M
Boys,51.71,2,Dylan Slyter,Sunnyvale,50.8,129.27,68.04,142.88,340.19,Single-ply,SBD,M
Boys,51.71,3,Trace Woodruff,Crandall,50.53,113.4,74.84,120.2,308.44,Single-ply,SBD,M
Boys,51.71,4,Roman Colsten,Commerce,51.07,108.86,47.63,108.86,265.35,Single-ply,SBD,M
Boys,51.71,5,CJ Leos,Sunnyvale,51.26,92.99,52.16,111.13,256.28,Single-ply,SBD,M
Boys,51.71,6,Gio Lozano,North Forney,50.17,83.91,54.43,104.33,242.67,Single-ply,SBD,M
Boys,55.79,1,Lane Anthony,Nevada Community,55.25,181.44,77.11,154.22,412.77,Single-ply,SBD,M
Boys,55.79,2,Daniel Herron,Frisco Heritage,54.61,111.13,74.84,108.86,294.84,Single-ply,SBD,M
Boys,55.79,3,Braylin Witherspoon,South Garland,54.16,97.52,58.97,124.74,281.23,Single-ply,SBD,M
Boys,55.79,4,Wesley Hughes,Whitney,54.16,97.52,61.23,117.93,276.69,Single-ply,SBD,M
Boys,55.79,5,Jeremiah Williams,Bishop Lynch,54.43,79.38,45.36,102.06,226.8,Single-ply,SBD,M
Boys,55.79,DQ,Blayze Ferguson,Frisco Heritage,54.7,127.01,,,,Single-ply,SBD,M
Boys,59.87,1,Aaron Goodwin,Mabank,57.33,154.22,102.06,140.61,396.89,Single-ply,SBD,M
Boys,59.87,2,AC King,Mesquite Poteet,59.24,138.35,95.25,147.42,381.02,Single-ply,SBD,M
Boys,59.87,3,Kolten Pulliam,Blue Ridge,58.6,131.54,86.18,136.08,353.8,Single-ply,SBD,M
Boys,59.87,4,Jonathan Martin,Forney,58.06,133.81,79.38,136.08,349.27,Single-ply,SBD,M
Boys,59.87,5,Dalton Wooten,Whitney,59.15,127.01,70.31,140.61,337.93,Single-ply,SBD,M
Boys,59.87,6,Malachi Davis,Mabank,59.42,111.13,63.5,120.2,294.84,Single-ply,SBD,M
Boys,59.87,7,Gabriel Dorman,Nevada Community,59.33,90.72,47.63,92.99,231.33,Single-ply,SBD,M
Boys,59.87,DQ,Hayden Jenson,Whitney,57.33,,,,,Single-ply,SBD,M
Boys,67.13,1,Omar Villegas #2,Melissa,67.13,199.58,104.33,181.44,485.34,Single-ply,SBD,M
Boys,67.13,2,Jeremiah Anukem,Mesquite Poteet,66.32,172.37,95.25,195.04,462.66,Single-ply,SBD,M
Boys,67.13,3,Tajohn Livingston,South Garland,60.24,170.1,72.57,208.65,451.32,Single-ply,SBD,M
Boys,67.13,4,Gavin West,Forney,66.41,167.83,95.25,174.63,437.72,Single-ply,SBD,M
Boys,67.13,5,Akil Lewis,Forney,67.13,163.29,95.25,174.63,433.18,Single-ply,SBD,M
Boys,67.13,6,Josh Wager,Garland Lakeview Cent,67.04,133.81,86.18,181.44,401.43,Single-ply,SBD,M
Boys,67.13,7,Dylan Brown,Mesquite Poteet,66.68,147.42,90.72,161.03,399.16,Single-ply,SBD,M
Boys,67.13,8,Korrighan Smith,Commerce,64.59,142.88,86.18,161.03,390.09,Single-ply,SBD,M
Boys,67.13,9,Hunter Wigginton,Sunnyvale,66.22,151.95,79.38,149.69,381.02,Single-ply,SBD,M
Boys,67.13,10,Zac Bartis,Sunnyvale,64.41,138.35,81.65,138.35,358.34,Single-ply,SBD,M
Boys,67.13,11,Connor Wilson,North Forney,65.32,102.06,68.04,115.67,285.76,Single-ply,SBD,M
Boys,67.13,DQ,Dahltyn McKinley,Mabank,65.32,,,,,Single-ply,SBD,M
Boys,74.84,1,Anthony Perez,North Forney,74.57,192.78,102.06,210.92,505.76,Single-ply,SBD,M
Boys,74.84,2,Jose Villanueva #3,Kemp,72.3,192.78,106.59,174.63,474,Single-ply,SBD,M
Boys,74.84,3,Donnie Shultz,Kemp,71.4,190.51,111.13,167.83,469.47,Single-ply,SBD,M
Boys,74.84,4,Connor Straughan,Commerce,74.12,179.17,102.06,170.1,451.32,Single-ply,SBD,M
Boys,74.84,5,Conner Smith,Commerce,69.94,165.56,97.52,181.44,444.52,Single-ply,SBD,M
Boys,74.84,6,Devon Rundles,Forney,71.94,158.76,108.86,172.37,439.98,Single-ply,SBD,M
Boys,74.84,7,Aaron Mount,Forney,72.76,165.56,99.79,174.63,439.98,Single-ply,SBD,M
Boys,74.84,8,Wilder Gross,Crandall,74.12,161.03,95.25,158.76,415.04,Single-ply,SBD,M
Boys,74.84,9,Ethan Watson,Crandall,71.67,154.22,102.06,142.88,399.16,Single-ply,SBD,M
Boys,74.84,10,Jacob Donaldson,North Forney,68.13,147.42,83.91,165.56,396.89,Single-ply,SBD,M
Boys,74.84,11,Slater James,Blue Ridge,73.3,156.49,79.38,158.76,394.63,Single-ply,SBD,M
Boys,74.84,12,Angel Gutierrez,South Garland,70.4,142.88,79.38,170.1,392.36,Single-ply,SBD,M
Boys,74.84,13,Xander Phillips,Garland Lakeview Cent,74.84,161.03,77.11,154.22,392.36,Single-ply,SBD,M
Boys,74.84,14,Colton Westbrook,Nevada Community,74.75,138.35,79.38,151.95,369.68,Single-ply,SBD,M
Boys,74.84,15,Bragen Gross,Crandall,68.04,136.08,83.91,147.42,367.41,Single-ply,SBD,M
Boys,74.84,16,Max Mcada,Sunnyvale,73.94,142.88,88.45,136.08,367.41,Single-ply,SBD,M
Boys,74.84,17,Hunter Carroll,Forney,73.48,145.15,77.11,142.88,365.14,Single-ply,SBD,M
Boys,74.84,18,Kaisen Burrows,Mabank,74.66,129.27,88.45,136.08,353.8,Single-ply,SBD,M
Boys,74.84,19,Juan-Jose Oliva,Bishop Lynch,69.85,129.27,83.91,136.08,349.27,Single-ply,SBD,M
Boys,74.84,20,Jacob Grimes,Crandall,72.21,136.08,92.99,120.2,349.27,Single-ply,SBD,M
Boys,74.84,21,Noah Hughes,Mabank,68.31,136.08,77.11,133.81,347,Single-ply,SBD,M
Boys,74.84,22,Byrce Flaherty,Frisco Memorial,69.4,129.27,90.72,113.4,333.39,Single-ply,SBD,M
Boys,74.84,23,Hayden Lark,Frisco Heritage,72.3,83.91,43.09,113.4,240.4,Single-ply,SBD,M
Boys,74.84,DQ,Jacob Poston,Whitney,74.21,136.08,,,,Single-ply,SBD,M
Boys,74.84,DQ,Abe Garrett,Whitney,67.4,,74.84,,,Single-ply,SBD,M
Boys,74.84,DQ,Broc Armstrong,Blue Ridge,70.22,102.06,,,,Single-ply,SBD,M
Boys,82.1,1,Gabriel Dexter,Forney,79.83,215.46,136.08,210.92,562.45,Single-ply,SBD,M
Boys,82.1,2,Johnathan Mendez,Kemp,80.83,233.6,113.4,204.12,551.11,Single-ply,SBD,M
Boys,82.1,3,Tripp McAda,Sunnyvale,75.3,204.12,117.93,190.51,512.56,Single-ply,SBD,M
Boys,82.1,4,Antwon Ross,Frisco Heritage,81.1,185.97,120.2,204.12,510.29,Single-ply,SBD,M
Boys,82.1,5,Daniel Delgado,South Garland,76.84,192.78,108.86,204.12,505.76,Single-ply,SBD,M
Boys,82.1,6,Caden Hayes,Melissa,82.01,192.78,108.86,172.37,474,Single-ply,SBD,M
Boys,82.1,7,Greyson Burros,Forney,79.02,192.78,106.59,172.37,471.74,Single-ply,SBD,M
Boys,82.1,8,Autin Payne,Sunnyvale,81.65,167.83,99.79,204.12,471.74,Single-ply,SBD,M
Boys,82.1,9,Justin Ebarb,Nevada Community,82.1,188.24,106.59,172.37,467.2,Single-ply,SBD,M
Boys,82.1,10,Brayton Brown,Melissa,77.75,192.78,95.25,163.29,451.32,Single-ply,SBD,M
Boys,82.1,11,Jasser Sappayani,Sunnyvale,79.38,176.9,97.52,170.1,444.52,Single-ply,SBD,M
Boys,82.1,12,Reece Riherd,Frisco Heritage,75.02,170.1,92.99,179.17,442.25,Single-ply,SBD,M
Boys,82.1,13,Livan Martinez,Frisco Heritage,75.84,113.4,111.13,140.61,365.14,Single-ply,SBD,M
Boys,82.1,14,Chris Jelezogio,Garland Lakeview Cent,80.29,131.54,74.84,147.42,353.8,Single-ply,SBD,M
Boys,82.1,15,Jacob Cates,Blue Ridge,75.11,111.13,74.84,136.08,322.05,Single-ply,SBD,M
Boys,82.1,16,Brooks Booth,Whitney,76.84,104.33,70.31,131.54,306.17,Single-ply,SBD,M
Boys,82.1,DQ,Mason Wooten,Whitney,79.92,195.04,,,,Single-ply,SBD,M
Boys,89.81,1,Chris Gidney,Blue Ridge,85.09,201.85,142.88,206.38,551.11,Single-ply,SBD,M
Boys,89.81,2,Colton Wilson,Nevada Community,84.91,217.72,120.2,206.38,544.31,Single-ply,SBD,M
Boys,89.81,3,Stephen Kirk,Mesquite Poteet,84.64,192.78,127.01,204.12,523.9,Single-ply,SBD,M
Boys,89.81,4,Blake Holloway,Mesquite Poteet,87.54,181.44,124.74,217.72,523.9,Single-ply,SBD,M
Boys,89.81,5,Deigo Diaz,Frisco Memorial,84.01,188.24,117.93,192.78,498.95,Single-ply,SBD,M
Boys,89.81,6,Justin Mays,Melissa,89.81,197.31,92.99,181.44,471.74,Single-ply,SBD,M
Boys,89.81,7,Omarhri Davis,Commerce,89.72,176.9,83.91,204.12,464.93,Single-ply,SBD,M
Boys,89.81,8,Ethan Harrison,Frisco Memorial,84.28,192.78,111.13,156.49,460.4,Single-ply,SBD,M
Boys,89.81,9,Will Hauphrief,Melissa,83.37,197.31,102.06,154.22,453.59,Single-ply,SBD,M
Boys,89.81,10,Rylan Smart,North Forney,87.63,165.56,99.79,188.24,453.59,Single-ply,SBD,M
Boys,89.81,11,Josue Bustamante,Mesquite Poteet,86.64,165.56,102.06,165.56,433.18,Single-ply,SBD,M
Boys,89.81,12,Freddie Jimenez,Frisco Memorial,88,154.22,106.59,163.29,424.11,Single-ply,SBD,M
Boys,89.81,13,Dominic Chiapuzio,North Forney,88.72,136.08,97.52,181.44,415.04,Single-ply,SBD,M
Boys,89.81,14,Dyan Pun,Sunnyvale,88.45,165.56,92.99,142.88,401.43,Single-ply,SBD,M
Boys,89.81,15,Jake Turner,Commerce,86.09,161.03,90.72,145.15,396.89,Single-ply,SBD,M
Boys,89.81,16,Chance Knight,Commerce,85.91,154.22,90.72,142.88,387.82,Single-ply,SBD,M
Boys,89.81,17,Yousuf Durrani,Frisco Memorial,89.63,92.99,54.43,127.01,274.42,Single-ply,SBD,M
Boys,89.81,DQ,Jacob Wesley,Nevada Community,89.27,,,,,Single-ply,SBD,M
Boys,89.81,DQ,David Chavez,Bishop Lynch,84.91,,,,,Single-ply,SBD,M
Boys,89.81,DQ,Tyler Bryant,Crandall,89.45,204.12,122.47,,,Single-ply,SBD,M
Boys,99.79,1,Graham Burns,Forney,93.26,210.92,127.01,217.72,555.65,Single-ply,SBD,M
Boys,99.79,2,Caleb Kroese,Melissa,99.7,226.8,111.13,206.38,544.31,Single-ply,SBD,M
Boys,99.79,3,Harley Manders,Kemp,93.17,229.06,129.27,183.7,542.04,Single-ply,SBD,M
Boys,99.79,4,Hunter Shaw,Forney,90.45,204.12,115.67,213.19,532.97,Single-ply,SBD,M
Boys,99.79,5,Ashton Wright #1,Sunnyvale,91.63,199.58,117.93,206.38,523.9,Single-ply,SBD,M
Boys,99.79,6,Corjohnta Dunbar,Commerce,99.06,183.7,115.67,188.24,487.61,Single-ply,SBD,M
Boys,99.79,7,Ethan Monaco,North Forney,97.25,181.44,102.06,181.44,464.93,Single-ply,SBD,M
Boys,99.79,8,Geronimo Rodriguez,Whitney,95.8,183.7,97.52,176.9,458.13,Single-ply,SBD,M
Boys,99.79,9,Tyler Burrell,Whitney,92.8,167.83,97.52,172.37,437.72,Single-ply,SBD,M
Boys,99.79,10,Numair Baig,Frisco Memorial,97.98,170.1,97.52,161.03,428.64,Single-ply,SBD,M
Boys,99.79,11,Caleb Jones #2,Garland Lakeview Cent,90.54,151.95,83.91,158.76,394.63,Single-ply,SBD,M
Boys,99.79,12,Amari Davis,South Garland,93.8,142.88,102.06,149.69,394.63,Single-ply,SBD,M
Boys,99.79,13,Treymon Jackson,South Garland,93.17,142.88,92.99,154.22,390.09,Single-ply,SBD,M
Boys,99.79,14,Tanner Mullins,Kemp,90.9,124.74,77.11,174.63,376.48,Single-ply,SBD,M
Boys,99.79,15,Sean Kernohan,Frisco Memorial,91.35,142.88,74.84,138.35,356.07,Single-ply,SBD,M
Boys,99.79,DQ,John Pope,Mabank,93.44,149.69,,,,Single-ply,SBD,M
Boys,99.79,DQ,Paul Karoma,Frisco Heritage,99.52,,,,,Single-ply,SBD,M
Boys,109.77,1,Brody Wiggins,Blue Ridge,105.05,238.14,176.9,204.12,619.15,Single-ply,SBD,M
Boys,109.77,2,Devin Sterling,Sunnyvale,107.05,235.87,122.47,215.46,573.79,Single-ply,SBD,M
Boys,109.77,3,Alex Amar,Sunnyvale,103.42,226.8,140.61,199.58,566.99,Single-ply,SBD,M
Boys,109.77,4,Anthony Peak,Commerce,107.23,217.72,136.08,195.04,548.85,Single-ply,SBD,M
Boys,109.77,5,Isaac Chavez,Bishop Lynch,103.69,206.38,142.88,192.78,542.04,Single-ply,SBD,M
Boys,109.77,6,Patrick Lacy,North Forney,109.23,204.12,117.93,213.19,535.24,Single-ply,SBD,M
Boys,109.77,7,Seth Bell,Forney,103.33,201.85,122.47,188.24,512.56,Single-ply,SBD,M
Boys,109.77,8,Joseph Shore,Bishop Lynch,109.13,195.04,122.47,188.24,505.76,Single-ply,SBD,M
Boys,109.77,9,Noah Monroe,North Forney,109.13,188.24,104.33,188.24,480.81,Single-ply,SBD,M
Boys,109.77,10,Logan Monroe,Bishop Lynch,104.14,199.58,104.33,170.1,474,Single-ply,SBD,M
Boys,109.77,11,Logan Butler,Frisco Memorial,108.86,181.44,102.06,183.7,467.2,Single-ply,SBD,M
Boys,109.77,12,Omar Ilyas,Frisco Memorial,107.68,165.56,88.45,161.03,415.04,Single-ply,SBD,M
Boys,109.77,13,Marquiese Anderson,Garland Lakeview Cent,100.61,172.37,88.45,147.42,408.23,Single-ply,SBD,M
Boys,109.77,14,Zane Sanchez,Frisco Heritage,106.96,140.61,97.52,154.22,392.36,Single-ply,SBD,M
Boys,109.77,15,Christian Rector,Garland Lakeview Cent,102.42,136.08,88.45,151.95,376.48,Single-ply,SBD,M
Boys,109.77,16,Braden Ulhmann,Frisco Memorial,104.33,120.2,92.99,156.49,369.68,Single-ply,SBD,M
Boys,109.77,DQ,Gabriel Martinez,Bishop Lynch,104.87,,,,,Single-ply,SBD,M
Boys,124.74,1,Coty Neugin,Crandall,124.28,269.89,161.03,226.8,657.71,Single-ply,SBD,M
Boys,124.74,2,Willie Anderson,Mesquite Poteet,115.03,244.94,145.15,235.87,625.96,Single-ply,SBD,M
Boys,124.74,3,Anthony Cork,Commerce,122.92,226.8,140.61,206.38,573.79,Single-ply,SBD,M
Boys,124.74,4,Alex Spera,Sunnyvale,112.94,204.12,138.35,195.04,537.51,Single-ply,SBD,M
Boys,124.74,5,Jayston Jones,Commerce,115.21,183.7,136.08,170.1,489.88,Single-ply,SBD,M
Boys,124.74,6,Matthew Martinez #7,Mesquite Poteet,121.56,181.44,115.67,192.78,489.88,Single-ply,SBD,M
Boys,124.74,7,Al Magallanes,Frisco Heritage,112.31,179.17,115.67,181.44,476.27,Single-ply,SBD,M
Boys,124.74,8,Zander Gonzales,Melissa,114.31,197.31,90.72,170.1,458.13,Single-ply,SBD,M
Boys,124.74,9,Blake Brazell,Melissa,115.76,181.44,86.18,163.29,430.91,Single-ply,SBD,M
Boys,124.74,10,Billy Metzger,Sunnyvale,115.21,163.29,102.06,158.76,424.11,Single-ply,SBD,M
Boys,124.74,11,Alec Mullins,Kemp,117.48,113.4,95.25,195.04,403.7,Single-ply,SBD,M
Boys,124.74,12,Collin Young,Bishop Lynch,112.13,58.97,38.56,106.59,204.12,Single-ply,SBD,M
Boys,124.74,DQ,Cameron Miller,Nevada Community,124.74,,,,,Single-ply,SBD,M
Boys,124.74,DQ,Nick Calaise,Garland Lakeview Cent,123.83,226.8,124.74,,,Single-ply,SBD,M
Boys,124.74+,1,Marcus Alexander,Sunnyvale,140.61,244.94,151.95,260.82,657.71,Single-ply,SBD,M
Boys,124.74+,2,Cade Crawford,Forney,138.89,288.03,151.95,199.58,639.57,Single-ply,SBD,M
Boys,124.74+,3,Marcus Sanchez,South Garland,133.63,251.74,145.15,208.65,605.55,Single-ply,SBD,M
Boys,124.74+,4,Demaree Gay,Crandall,166.01,233.6,149.69,208.65,591.94,Single-ply,SBD,M
Boys,124.74+,5,Jobin Chirayil,Sunnyvale,142.88,226.8,151.95,199.58,578.33,Single-ply,SBD,M
Boys,124.74+,6,David Rodriguez #6,Mesquite Poteet,127.28,217.72,142.88,197.31,557.92,Single-ply,SBD,M
Boys,124.74+,7,Diavien Fowler,Garland Lakeview Cent,129.82,208.65,127.01,181.44,517.1,Single-ply,SBD,M
Boys,124.74+,8,Sam Bartis,Sunnyvale,127.46,208.65,117.93,188.24,514.83,Single-ply,SBD,M
Boys,124.74+,9,Diego Escalante,South Garland,131.72,204.12,111.13,192.78,508.02,Single-ply,SBD,M
Boys,124.74+,10,Lee Shaw,Mesquite Poteet,155.13,192.78,111.13,185.97,489.88,Single-ply,SBD,M
Boys,124.74+,11,Riley Tracy,North Forney,146.24,170.1,90.72,188.24,449.06,Single-ply,SBD,M
Boys,124.74+,DQ,Garrett Bowen,Melissa,125.55,222.26,117.93,,,Single-ply,SBD,M
Boys,124.74+,DQ,Shawntay Owens,Whitney,125.83,249.48,,,,Single-ply,SBD,M
