Division,WeightClassKg,Place,Name,Team,BodyweightKg,Best3SquatKg,Best3BenchKg,Best3DeadliftKg,TotalKg,Equipment,Event,Sex,BirthDate
Girls,44.23,1,Jackie Perez,Woodsboro,44,83.91,36.29,77.11,197.31,Unlimited,SBD,F,
Girls,44.23,2,Shyanne Guitierrez,Refugio,39.01,52.16,29.48,68.04,149.69,Unlimited,SBD,F,
Girls,44.23,DQ,Andrea Henriquez,Port Lavaca Calhoun,44,97.52,45.36,,,Unlimited,SBD,F,
Girls,47.85,1,Alexis Gonzales,Port Lavaca Calhoun,47.63,106.59,54.43,113.4,274.42,Unlimited,SBD,F,
Girls,47.85,2,Sofia Uribe-Vela,Ingleside,45.81,106.59,52.16,111.13,269.89,Unlimited,SBD,F,
Girls,47.85,3,Maryah Acosta,Gregory-Portland,46.27,77.11,56.7,104.33,238.14,Unlimited,SBD,F,
Girls,47.85,4,Aaliyah Garcia,Victoria East,47.63,90.72,43.09,102.06,235.87,Unlimited,SBD,F,
Girls,47.85,5,Jazlynn Gonzales,Skidmore-Tynan,45.36,83.91,47.63,97.52,229.06,Unlimited,SBD,F,
Girls,47.85,6,Mckinley Williams,Bruni,47.63,95.25,34.02,72.57,201.85,Unlimited,SBD,F,
Girls,47.85,7,Gabriella Castillo,Ingleside,44.45,56.7,24.95,61.23,142.88,Unlimited,SBD,F,
Girls,47.85,DQ,Carlie Mcclain,Refugio,47.17,83.91,45.36,,,Unlimited,SBD,F,
Girls,51.94,1,Brooklyn Delgado,Port Lavaca Calhoun,51.26,117.93,56.7,113.4,288.03,Unlimited,SBD,F,
Girls,56.02,1,Haley Torres,Port Lavaca Calhoun,53.52,131.54,70.31,122.47,324.32,Unlimited,SBD,F,
Girls,56.02,2,Linda Zamorano,Port Lavaca Calhoun,55.79,122.47,49.9,133.81,306.17,Unlimited,SBD,F,
Girls,56.02,3,Paula Gonzales,Skidmore-Tynan,54.88,102.06,61.23,120.2,283.5,Unlimited,SBD,F,
Girls,56.02,4,Jonika Rodriguez,Skidmore-Tynan,54.88,102.06,43.09,102.06,247.21,Unlimited,SBD,F,
Girls,56.02,5,Caitlyn Ramirez,Skidmore-Tynan,53.52,90.72,43.09,104.33,238.14,Unlimited,SBD,F,
Girls,56.02,6,Gabriella Zapata,Gregory-Portland,55.34,92.99,54.43,88.45,235.87,Unlimited,SBD,F,
Girls,56.02,7,Aariyana Saldivar,Woodsboro,55.34,88.45,43.09,104.33,235.87,Unlimited,SBD,F,
Girls,60.1,1,Yaneiris Maldonado,Victoria East,59.87,145.15,83.91,151.95,381.02,Unlimited,SBD,F,
Girls,60.1,2,Talyiah Hosey,Port Lavaca Calhoun,58.06,151.95,72.57,145.15,369.68,Unlimited,SBD,F,
Girls,60.1,3,Aracelli Solis,Gregory-Portland,59.42,149.69,86.18,131.54,367.41,Unlimited,SBD,F,
Girls,60.1,4,Zoeigh Pena,Port Lavaca Calhoun,58.06,124.74,72.57,129.27,326.59,Unlimited,SBD,F,
Girls,60.1,5,Sydney Arredondo,Refugio,59.87,115.67,52.16,138.35,306.17,Unlimited,SBD,F,
Girls,60.1,6,Kailey Padilla,Bruni,59.87,106.59,68.04,122.47,297.1,Unlimited,SBD,F,
Girls,60.1,7,Lucia Carvajal,Refugio,59.87,106.59,56.7,106.59,269.89,Unlimited,SBD,F,
Girls,60.1,8,Lexi Reeves,Gregory-Portland,58.51,113.4,52.16,99.79,265.35,Unlimited,SBD,F,
Girls,60.1,9,Cleo Adame,Ingleside,59.42,95.25,58.97,108.86,263.08,Unlimited,SBD,F,
Girls,60.1,10,Claire Flores,Port Lavaca Calhoun,58.51,97.52,43.09,115.67,256.28,Unlimited,SBD,F,
Girls,60.1,11,Leah Garcia,Bruni,58.51,83.91,45.36,79.38,208.65,Unlimited,SBD,F,
Girls,60.1,12,Jazmin Lopez,Refugio,57.15,54.43,34.02,63.5,151.95,Unlimited,SBD,F,
Girls,67.36,1,Amy Rico,Port Lavaca Calhoun,65.77,151.95,83.91,149.69,385.55,Unlimited,SBD,F,
Girls,67.36,2,Kalee Bullard,Ingleside,67.13,108.86,72.57,136.08,317.51,Unlimited,SBD,F,
Girls,67.36,3,Lariyah Lopez,Woodsboro,64.86,113.4,49.9,129.27,292.57,Unlimited,SBD,F,
Girls,67.36,4,Rowan Guajardo,Victoria East,65.77,111.13,61.23,120.2,292.57,Unlimited,SBD,F,
Girls,67.36,5,Sophia Robertson,Ingleside,65.77,111.13,63.5,111.13,285.76,Unlimited,SBD,F,
Girls,67.36,6,Isabelle Solis,Gregory-Portland,61.23,88.45,81.65,108.86,278.96,Unlimited,SBD,F,
Girls,67.36,7,Kaygen Lewis,Woodsboro,62.6,102.06,52.16,111.13,265.35,Unlimited,SBD,F,
Girls,67.36,8,Ally Hernandez,Skidmore-Tynan,65.77,108.86,54.43,97.52,260.82,Unlimited,SBD,F,
Girls,67.36,9,Khloe Muniz,Goliad,63.05,79.38,27.22,102.06,208.65,Unlimited,SBD,F,
Girls,67.36,10,Nayah Macaambac,Gregory-Portland,64.86,74.84,45.36,79.38,199.58,Unlimited,SBD,F,
Girls,75.07,1,Kelsea Bonuz,Victoria East,73.94,145.15,83.91,158.76,387.82,Unlimited,SBD,F,
Girls,75.07,2,Sidney Castillo,Woodsboro,71.21,124.74,74.84,154.22,353.8,Unlimited,SBD,F,
Girls,75.07,3,Margarita Valera,Bruni,70.76,129.27,56.7,127.01,312.98,Unlimited,SBD,F,
Girls,75.07,4,Stephanie Galindo,Bruni,72.12,122.47,68.04,113.4,303.91,Unlimited,SBD,F,
Girls,75.07,5,Emma Meza,Refugio,68.04,95.25,49.9,115.67,260.82,Unlimited,SBD,F,
Girls,75.07,6,Ava Rossi,Bruni,70.76,99.79,52.16,106.59,258.55,Unlimited,SBD,F,
Girls,82.33,1,Kharli Garcia,Victoria East,81.65,210.92,124.74,185.97,521.63,Unlimited,SBD,F,
Girls,82.33,2,Lilyanna Hernandez,Skidmore-Tynan,79.83,167.83,70.31,136.08,374.21,Unlimited,SBD,F,
Girls,82.33,3,Piper Durbin,Ingleside,76.2,151.95,79.38,127.01,358.34,Unlimited,SBD,F,
Girls,82.33,4,Elaina Canales,Skidmore-Tynan,81.65,122.47,61.23,129.27,312.98,Unlimited,SBD,F,
Girls,82.33,5,Evelyna Garcia,Bruni,80.74,108.86,56.7,106.59,272.16,Unlimited,SBD,F,
Girls,82.33,6,Alexandra Salazar,Refugio,79.83,92.99,45.36,99.79,238.14,Unlimited,SBD,F,
Girls,82.33,7,Kayleyanne Lowe,Bruni,76.66,72.57,49.9,79.38,201.85,Unlimited,SBD,F,
Girls,90.04,1,Olivia Zboral,Victoria East,87.54,185.97,124.74,165.56,476.27,Unlimited,SBD,F,
Girls,90.04,2,Zarah Cano,Port Lavaca Calhoun,88.45,161.03,86.18,170.1,417.3,Unlimited,SBD,F,
Girls,90.04,3,Aniyah Garcia,Port Lavaca Calhoun,89.36,165.56,74.84,136.08,376.48,Unlimited,SBD,F,
Girls,90.04,4,Graciela Gonzalez,Victoria East,85.73,151.95,86.18,120.2,358.34,Unlimited,SBD,F,
Girls,90.04,5,Mackenzi Smith,Skidmore-Tynan,82.55,142.88,68.04,131.54,342.46,Unlimited,SBD,F,
Girls,90.04,6,Laigen Hillis,Ingleside,88,142.88,68.04,127.01,337.93,Unlimited,SBD,F,
Girls,90.04,7,Jennette Guerra,Gregory-Portland,87.54,117.93,74.84,129.27,322.05,Unlimited,SBD,F,
Girls,90.04,8,Abygale Veirs,Bruni,84.37,108.86,72.57,102.06,283.5,Unlimited,SBD,F,
Girls,90.04,9,Zoey Zuniga,Ingleside,86.64,90.72,52.16,90.72,233.6,Unlimited,SBD,F,
Girls,90.04,10,Journie Dubose,Refugio,87.54,83.91,43.09,92.99,219.99,Unlimited,SBD,F,
Girls,90.04,DQ,Maeba Ruff,Ingleside,83.46,,,,,Unlimited,SBD,F,
Girls,100.02,1,Adalina Escobar,Ingleside,94.35,138.35,68.04,113.4,319.78,Unlimited,SBD,F,
Girls,100.02,2,Carlee Wiginton,Woodsboro,92.08,106.59,49.9,131.54,288.03,Unlimited,SBD,F,
Girls,100.02,3,Keiana Hatchett,Woodsboro,94.8,104.33,45.36,127.01,276.69,Unlimited,SBD,F,
Girls,100.02,4,Adrianna Rosas,Woodsboro,93.44,90.72,58.97,113.4,263.08,Unlimited,SBD,F,
Girls,100.02,5,Bianca Alvarez,Bruni,95.71,70.31,36.29,86.18,192.78,Unlimited,SBD,F,
Girls,100.02,DQ,Natalie Cardosa,Skidmore-Tynan,91.63,,,,,Unlimited,SBD,F,
Girls,100.02,DQ,Brooklyn Menchaca,Skidmore-Tynan,91.17,68.04,43.09,,,Unlimited,SBD,F,
Girls,110,1,Zailey Cano,Port Lavaca Calhoun,107.95,217.72,140.61,172.37,530.7,Unlimited,SBD,F,
Girls,110,2,Cecelia Bonuz,Victoria East,102.51,174.63,92.99,163.29,430.91,Unlimited,SBD,F,
Girls,110,3,Emma Delafuente,Bruni,105.23,165.56,97.52,129.27,392.36,Unlimited,SBD,F,
Girls,110,4,Alexia Driver,Ingleside,108.86,140.61,81.65,111.13,333.39,Unlimited,SBD,F,
Girls,110,5,Kaitlyn Lopez,Refugio,100.7,140.61,72.57,106.59,319.78,Unlimited,SBD,F,
Girls,110,6,Salem Bass,Refugio,109.32,90.72,54.43,111.13,256.28,Unlimited,SBD,F,
Girls,110,7,Grace Matern,Ingleside,100.7,90.72,47.63,95.25,233.6,Unlimited,SBD,F,
Girls,110+,1,Jazmyn Gonzales,Gregory-Portland,118.84,199.58,129.27,176.9,505.76,Unlimited,SBD,F,
Girls,110+,2,Emerald Finch,Victoria East,116.12,136.08,90.72,145.15,371.95,Unlimited,SBD,F,
Girls,110+,3,Lillyann Lopez,Refugio,141.97,72.57,54.43,90.72,217.72,Unlimited,SBD,F,
Girls,,NS,Ava Gutierrez,Skidmore-Tynan,,,,,,Unlimited,SBD,F,
Girls,,NS,Angelina Delgado,Skidmore-Tynan,,,,,,Unlimited,SBD,F,
Girls,,NS,Angel Cordova,Victoria East,,,,,,Unlimited,SBD,F,
Girls,,NS,Julianna Mendoza,Runge,,,,,,Unlimited,SBD,F,
Girls,,NS,Jenna Garza,Runge,,,,,,Unlimited,SBD,F,
Girls,,NS,Clara Tilley,Refugio,,,,,,Unlimited,SBD,F,
Girls,,NS,Alyanna Brown,Refugio,,,,,,Unlimited,SBD,F,
Girls,,NS,Alyssa Padron,Gregory-Portland,,,,,,Unlimited,SBD,F,
Girls,,NS,Kailani Vargas,Gregory-Portland,,,,,,Unlimited,SBD,F,
