Division,WeightClassKg,Place,Name,Team,BodyweightKg,Best3SquatKg,Best3BenchKg,Best3DeadliftKg,TotalKg,Equipment,Event,Sex
Boys,51.71,1,Jorge Saldana,Natalia,51.53,158.76,97.52,174.63,430.91,Single-ply,SBD,M
Boys,51.71,2,Randy Soliz,Hebbronville,51.53,142.88,79.38,163.29,385.55,Single-ply,SBD,M
Boys,51.71,3,Oziel Padilla,Natalia,51.53,156.49,68.04,149.69,374.21,Single-ply,SBD,M
Boys,55.79,4,Jose Hernandez #3,Karnes City,51.89,133.81,86.18,136.08,356.07,Single-ply,SBD,M
Boys,51.71,5,Raul Ocampo,Natalia,51.71,129.27,65.77,147.42,342.46,Single-ply,SBD,M
Boys,51.71,6,Matt Garza,Jourdanton,46.63,138.35,77.11,124.74,340.19,Single-ply,SBD,M
Boys,51.71,7,Manuel Saldana,Natalia,51.17,108.86,52.16,136.08,297.1,Single-ply,SBD,M
Boys,51.71,8,Austin Schlemper,Universal City Randolph,51.35,113.4,65.77,113.4,292.57,Single-ply,SBD,M
Boys,55.79,1,Max Obregon,Dilley,55.25,176.9,113.4,188.24,478.54,Single-ply,SBD,M
Boys,55.79,2,Patrick Ayala,Banquete,54.79,154.22,77.11,185.97,417.3,Single-ply,SBD,M
Boys,55.79,3,Jared Medina,Banquete,55.25,156.49,79.38,167.83,403.7,Single-ply,SBD,M
Boys,55.79,4,Orlando Gonzales,Natalia,54.98,147.42,79.38,174.63,401.43,Single-ply,SBD,M
Boys,55.79,5,Marcos Lara,Mathis,54.79,147.42,88.45,158.76,394.63,Single-ply,SBD,M
Boys,55.79,6,Rafael Mendoza,Santa Rosa,54.79,136.08,92.99,158.76,387.82,Single-ply,SBD,M
Boys,55.79,7,Raul Garcia,Cotulla,55.7,142.88,88.45,151.95,383.29,Single-ply,SBD,M
Boys,55.79,DQ,Alex Navas-Gonzales,Hallettsville,55.34,,,,,Single-ply,SBD,M
Boys,55.79,DQ,Brandon Teague,Altair Rice,55.07,170.1,,,,Single-ply,SBD,M
Boys,59.87,1,Parth Patel,Kenedy,58.33,176.9,111.13,195.04,483.08,Single-ply,SBD,M
Boys,59.87,2,Estevan Galvan,Freer,59.69,185.97,104.33,192.78,483.08,Single-ply,SBD,M
Boys,67.13,3,Alan Espinoza,Dilley,60.06,172.37,108.86,176.9,458.13,Single-ply,SBD,M
Boys,67.13,4,Josh Baez,Falfurrias,59.96,165.56,106.59,176.9,449.06,Single-ply,SBD,M
Boys,67.13,5,Nathan Pena,Dilley,60.06,181.44,95.25,170.1,446.79,Single-ply,SBD,M
Boys,59.87,6,Uriel Solorzano,Jourdanton,59.42,181.44,90.72,172.37,444.52,Single-ply,SBD,M
Boys,67.13,7,Rigo Franco,Poth,59.96,158.76,104.33,163.29,426.38,Single-ply,SBD,M
Boys,59.87,8,Victor Monsevais,Kenedy,59.15,161.03,81.65,167.83,410.5,Single-ply,SBD,M
Boys,59.87,DQ,Mason Reyes,Altair Rice,59.6,,,,,Single-ply,SBD,M
Boys,59.87,DQ,Kris Imhof,San Antonio Cole,58.42,154.22,,,,Single-ply,SBD,M
Boys,67.13,1,Arnold Bednorz,Freer,65.77,242.67,142.88,204.12,589.67,Single-ply,SBD,M
Boys,74.84,2,Drew Haas,Hallettsville,67.22,229.06,117.93,197.31,544.31,Single-ply,SBD,M
Boys,74.84,3,Alex Rocha,Skidmore-Tynan,67.31,190.51,120.2,167.83,478.54,Single-ply,SBD,M
Boys,74.84,4,Dmitri Florez,Falfurrias,67.22,174.63,99.79,195.04,469.47,Single-ply,SBD,M
Boys,67.13,5,Zach Trujillo,Universal City Randolph,65.77,183.7,102.06,181.44,467.2,Single-ply,SBD,M
Boys,67.13,6,Jadran Ramirez,Kenedy,66.95,167.83,92.99,206.38,467.2,Single-ply,SBD,M
Boys,67.13,DQ,Marcos Casas,Falfurrias,62.87,,,,,Single-ply,SBD,M
Boys,67.13,DQ,AJ Jiminian,Agua Dulce,65.77,,,,,Single-ply,SBD,M
Boys,67.13,DQ,Matthew Valdez,Stockdale,65.68,183.7,117.93,,,Single-ply,SBD,M
Boys,67.13,DQ,Emry Flores,Rocksprings,65.41,,,,,Single-ply,SBD,M
Boys,74.84,DQ,Alan Johns,Poth,67.31,,,,,Single-ply,SBD,M
Boys,74.84,1,Aaron Serrato,Freer,69.67,222.26,129.27,238.14,589.67,Single-ply,SBD,M
Boys,82.1,2,Jonathan Gonzalez,San Diego,74.89,238.14,136.08,215.46,589.67,Single-ply,SBD,M
Boys,82.1,3,Craig Wells,San Antonio Brooks Academy,74.93,210.92,138.35,240.4,589.67,Single-ply,SBD,M
Boys,74.84,4,Dalton Manning,Schulenburg,73.94,208.65,145.15,217.72,571.53,Single-ply,SBD,M
Boys,74.84,5,Joseph Ortiz,Jourdanton,73.21,226.8,122.47,215.46,564.72,Single-ply,SBD,M
Boys,82.1,6,Jacob Perez #3,Nixon Smiley,75.02,229.06,115.67,201.85,546.58,Single-ply,SBD,M
Boys,74.84,7,Seth Grasshoff,Hallettsville,73.12,206.38,127.01,210.92,544.31,Single-ply,SBD,M
Boys,74.84,DQ,Joe Garcia,Odem,71.49,,,,,Single-ply,SBD,M
Boys,74.84,DQ,Nathan Garcia,Jourdanton,73.84,224.53,,,,Single-ply,SBD,M
Boys,74.84,DQ,Trip Locke,Jourdanton,71.4,204.12,,,,Single-ply,SBD,M
Boys,82.1,1,Ricky Benavidez,Banquete,77.84,240.4,185.97,254.01,680.39,Single-ply,SBD,M
Boys,82.1,2,Carlos Charles,Bishop,79.56,254.01,149.69,226.8,630.49,Single-ply,SBD,M
Boys,82.1,3,Anthony Garza,Falfurrias,80.56,238.14,138.35,244.94,621.42,Single-ply,SBD,M
Boys,82.1,4,Arnold Sauceda,Hebbronville,79.92,247.21,129.27,226.8,603.28,Single-ply,SBD,M
Boys,82.1,5,Jake McDavid,Aransas Pass,81.1,222.26,129.27,235.87,587.4,Single-ply,SBD,M
Boys,82.1,6,Robert Castillo,La Pryor,80.38,210.92,129.27,226.8,566.99,Single-ply,SBD,M
Boys,82.1,7,Rene Ramirez,Hebbronville,78.65,174.63,106.59,210.92,492.15,Single-ply,SBD,M
Boys,82.1,DQ,Pablo Garcia,Falfurrias,81.65,226.8,,,,Single-ply,SBD,M
Boys,82.1,DQ,Nico Recio,Kingsville Academy,80.92,226.8,142.88,,,Single-ply,SBD,M
Boys,89.81,1,Joe Estrada,Jourdanton,87.54,294.84,183.7,229.06,707.6,Single-ply,SBD,M
Boys,89.81,2,Andrew Garza,Falfurrias,89.18,251.74,151.95,274.42,678.12,Single-ply,SBD,M
Boys,89.81,3,Jeremy Alaniz,Freer,89.54,247.21,142.88,231.33,621.42,Single-ply,SBD,M
Boys,89.81,4,Danny Barrera,Hebbronville,86.45,217.72,145.15,217.72,580.6,Single-ply,SBD,M
Boys,89.81,5,Michael Munoz,Bishop,87.91,233.6,120.2,217.72,571.53,Single-ply,SBD,M
Boys,89.81,6,Jacob Lopez,San Antonio Brooks Academy,88.27,231.33,133.81,201.85,566.99,Single-ply,SBD,M
Boys,89.81,7,Jon Echavarria,Mathis,87.09,192.78,102.06,226.8,521.63,Single-ply,SBD,M
Boys,89.81,8,Daniel Herrera,Banquete,88.18,195.04,117.93,53.98,366.96,Single-ply,SBD,M
Boys,89.81,DQ,Isaac Morales,Charlotte,87.09,215.46,142.88,,,Single-ply,SBD,M
Boys,89.81,DQ,Kaden Hardt,Hallettsville,88.63,219.99,,,,Single-ply,SBD,M
Boys,99.79,1,Matt Garcia,Ben Bolt-Palito Blanco,98.7,317.51,231.33,265.35,814.2,Single-ply,SBD,M
Boys,99.79,2,Miguel Olvera,San Diego,99.06,260.82,151.95,244.94,657.71,Single-ply,SBD,M
Boys,99.79,3,Bryan London,Universal City Randolph,95.8,244.94,136.08,244.94,625.96,Single-ply,SBD,M
Boys,99.79,4,Jose Moreno,San Diego,94.44,235.87,131.54,233.6,601.01,Single-ply,SBD,M
Boys,99.79,5,Joseph Perez,Refugio,91.44,226.8,142.88,222.26,591.94,Single-ply,SBD,M
Boys,99.79,6,Freddy Larry,Universal City Randolph,94.44,208.65,127.01,213.19,548.85,Single-ply,SBD,M
Boys,99.79,7,Rubelin Torres,Kingsville Academy,91.99,195.04,115.67,224.53,535.24,Single-ply,SBD,M
Boys,99.79,8,Jose Orellana,La Pryor,90.9,195.04,127.01,195.04,517.1,Single-ply,SBD,M
Boys,99.79,DQ,Ryan Gibson,Jourdanton,98.52,226.8,,,,Single-ply,SBD,M
Boys,99.79,DQ,Cody Parks,Goliad,99.34,,,,,Single-ply,SBD,M
Boys,99.79,DQ,Dalton Wallen,Aransas Pass,96.34,213.19,,,,Single-ply,SBD,M
Boys,109.77,1,Enrique Lugo,Jourdanton,106.23,335.66,215.46,265.35,816.47,Single-ply,SBD,M
Boys,109.77,2,Mark Bocanegra,Jourdanton,100.06,290.3,183.7,226.8,700.8,Single-ply,SBD,M
Boys,109.77,3,Brendon Breland,Banquete,103.78,272.16,181.44,235.87,689.46,Single-ply,SBD,M
Boys,109.77,4,Kolby Janek,Poth,105.96,254.01,172.37,215.46,641.83,Single-ply,SBD,M
Boys,109.77,5,Richard Lichtenberger,Freer,108.68,247.21,129.27,226.8,603.28,Single-ply,SBD,M
Boys,109.77,6,Santana Aguilar,Dilley,107.95,233.6,136.08,217.72,587.4,Single-ply,SBD,M
Boys,109.77,7,Robert Vargas,Hebbronville,101.42,204.12,142.88,170.1,517.1,Single-ply,SBD,M
Boys,109.77,DQ,Ross Reynolds,Jourdanton,105.14,,,,,Single-ply,SBD,M
Boys,109.77,DQ,Javier Henderson,Mathis,108.14,217.72,,,,Single-ply,SBD,M
Boys,109.77,DQ,Dylan Ferguson,Altair Rice,101.6,,,,,Single-ply,SBD,M
Boys,124.74,1,Lee Cook,Ben Bolt-Palito Blanco,114.21,294.84,201.85,251.74,748.43,Single-ply,SBD,M
Boys,124.74,2,Austin Speed,Goliad,122.38,299.37,181.44,249.48,730.28,Single-ply,SBD,M
Boys,124.74,3,Justin Brister,Jourdanton,119.02,272.16,163.29,249.48,684.92,Single-ply,SBD,M
Boys,124.74,4,Rene Gonzalez,Mathis,115.67,272.16,165.56,219.99,657.71,Single-ply,SBD,M
Boys,124.74,5,Nicholas Zapata,Bishop,122.83,260.82,151.95,222.26,635.03,Single-ply,SBD,M
Boys,124.74,6,William Olson,Jourdanton,113.58,274.42,154.22,201.85,630.49,Single-ply,SBD,M
Boys,124.74,7,Logan McMain,Nixon Smiley,110.31,235.87,142.88,226.8,605.55,Single-ply,SBD,M
Boys,124.74,8,Michael Diaz,Stockdale,118.21,240.4,133.81,226.8,601.01,Single-ply,SBD,M
Boys,124.74,9,Dillon Steffek,Hallettsville,113.04,249.48,151.95,197.31,598.74,Single-ply,SBD,M
Boys,124.74,10,Andre Hernandez,Natalia,110.4,238.14,122.47,226.8,587.4,Single-ply,SBD,M
Boys,124.74+,1,Rj Gonzales,Altair Rice,125.92,290.3,154.22,258.55,703.07,Single-ply,SBD,M
Boys,124.74+,2,Trent Enriquez,Karnes City,138.89,276.69,174.63,251.74,703.07,Single-ply,SBD,M
Boys,124.74+,3,JohnPaul Lugo,Jourdanton,125.65,281.23,158.76,235.87,675.85,Single-ply,SBD,M
Boys,124.74+,4,James Cooksey,Kenedy,135.26,283.5,133.81,233.6,650.91,Single-ply,SBD,M
Boys,124.74+,5,Isaiah Garcia,Charlotte,125.19,254.01,149.69,244.94,648.64,Single-ply,SBD,M
Boys,124.74+,6,Jonathan Lopez,Banquete,134.35,263.08,172.37,204.12,639.57,Single-ply,SBD,M
Boys,124.74+,7,Cody Martin,Center Point,133.08,258.55,154.22,222.26,635.03,Single-ply,SBD,M
Boys,124.74+,8,Austyn Carrizales,Dilley,139.98,272.16,136.08,226.8,635.03,Single-ply,SBD,M
Boys,124.74+,9,ELi Garza,George West,142.88,272.16,124.74,204.12,601.01,Single-ply,SBD,M
Boys,124.74+,DQ,Julius Gonzales,Dilley,132.18,267.62,138.35,,,Single-ply,SBD,M
